{ 
    
    "Larrow_Normal": [
        
        {
            "shape": [   \{ 283, 296 \}  ,  \{ 289, 297 \}  ,  \{ 289, 339 \}  ,  \{ 284, 342 \}  ,  \{ 263, 317 \}  ]
        }
    ]
    , 
    "LRarrow_Normal": [
        
        {
            "shape": [   \{ 377, 318 \}  ,  \{ 357, 341 \}  ,  \{ 352, 341 \}  ,  \{ 352, 295 \}  ]
        }
    ]
}
