{ 
    
    "Larrow_Normal@3x": [
        
        {
            "shape": [   {"x": 854, "y": 878 }  ,  {"x": 861, "y": 884 }  ,  {"x": 861, "y": 1013 }  ,  {"x": 859, "y": 1021 }  ,  {"x": 852, "y": 1022 }  ,  {"x": 785, "y": 952 }  ]
        }
    ]
    , 
    "LRarrow_Normal@3x": [
        
        {
            "shape": [   {"x": 1053, "y": 1015 }  ,  {"x": 1053, "y": 884 }  ,  {"x": 1061, "y": 879 }  ,  {"x": 1120, "y": 940 }  ,  {"x": 1064, "y": 1019 }  ,  {"x": 1057, "y": 1022 }  ]
        } ,
        {
            "shape": [   {"x": 1064, "y": 1019 }  ,  {"x": 1120, "y": 940 }  ,  {"x": 1128, "y": 954 }  ]
        }
    ]
}
