
{"frames": { 
	"RLarrow_Normal":{
		"originalTrimmedName" : "RLarrow_Normal",
		"frame" : {"x": 2, "y": 2, "w": 1280, "h": 720},
		"rotated": false, 
		"trimmed": false,
		"spriteSourceSize":	{ "x": 0, "y": 0, "w": 1280, "h": 720},
		"sourceSize": {"w": 1280, "h": 720}
	} },  
	"meta": {
	"app": "http://www.codeandweb.com/texturepacker",
	"version": "1.0",
	"image": "LRarrow_Normal@2x.png",
	"format": "RGBA8888",
	"size": {"w":1284,"h":724},
	"scale": "0.666667",
	"smartupdate": "$TexturePacker:SmartUpdate:d1d02c82297b96f27c611e6075136e97:d73f0877f3c9d0857d4b21136a86c5a1:9bc08bcb94ad19ed9acc90da37e5e3f8$"
	}
}