
{"frames": { 
	"Cross0000":{
		"originalTrimmedName" : "Cross0000",
		"frame" : {"x": 0, "y": 0, "w": 32, "h": 73},
		"rotated": false, 
		"trimmed": true,
		"spriteSourceSize":	{ "x": 24, "y": 3, "w": 32, "h": 73},
		"sourceSize": {"w": 80, "h": 80}
	},  
	"Cross0001":{
		"originalTrimmedName" : "Cross0001",
		"frame" : {"x": 64, "y": 0, "w": 28, "h": 74},
		"rotated": false, 
		"trimmed": true,
		"spriteSourceSize":	{ "x": 25, "y": 3, "w": 28, "h": 74},
		"sourceSize": {"w": 80, "h": 80}
	},  
	"Cross0002":{
		"originalTrimmedName" : "Cross0002",
		"frame" : {"x": 0, "y": 147, "w": 16, "h": 75},
		"rotated": false, 
		"trimmed": true,
		"spriteSourceSize":	{ "x": 31, "y": 2, "w": 16, "h": 75},
		"sourceSize": {"w": 80, "h": 80}
	},  
	"Cross0003":{
		"originalTrimmedName" : "Cross0003",
		"frame" : {"x": 16, "y": 147, "w": 16, "h": 75},
		"rotated": false, 
		"trimmed": true,
		"spriteSourceSize":	{ "x": 33, "y": 2, "w": 16, "h": 75},
		"sourceSize": {"w": 80, "h": 80}
	},  
	"Cross0004":{
		"originalTrimmedName" : "Cross0004",
		"frame" : {"x": 92, "y": 0, "w": 28, "h": 74},
		"rotated": false, 
		"trimmed": true,
		"spriteSourceSize":	{ "x": 27, "y": 3, "w": 28, "h": 74},
		"sourceSize": {"w": 80, "h": 80}
	},  
	"Cross0005":{
		"originalTrimmedName" : "Cross0005",
		"frame" : {"x": 32, "y": 0, "w": 32, "h": 73},
		"rotated": false, 
		"trimmed": true,
		"spriteSourceSize":	{ "x": 24, "y": 3, "w": 32, "h": 73},
		"sourceSize": {"w": 80, "h": 80}
	},  
	"Cross0006":{
		"originalTrimmedName" : "Cross0006",
		"frame" : {"x": 0, "y": 73, "w": 28, "h": 74},
		"rotated": false, 
		"trimmed": true,
		"spriteSourceSize":	{ "x": 25, "y": 3, "w": 28, "h": 74},
		"sourceSize": {"w": 80, "h": 80}
	},  
	"Cross0007":{
		"originalTrimmedName" : "Cross0007",
		"frame" : {"x": 32, "y": 147, "w": 16, "h": 75},
		"rotated": false, 
		"trimmed": true,
		"spriteSourceSize":	{ "x": 31, "y": 2, "w": 16, "h": 75},
		"sourceSize": {"w": 80, "h": 80}
	},  
	"Cross0008":{
		"originalTrimmedName" : "Cross0008",
		"frame" : {"x": 48, "y": 147, "w": 16, "h": 75},
		"rotated": false, 
		"trimmed": true,
		"spriteSourceSize":	{ "x": 33, "y": 2, "w": 16, "h": 75},
		"sourceSize": {"w": 80, "h": 80}
	},  
	"Cross0009":{
		"originalTrimmedName" : "Cross0009",
		"frame" : {"x": 28, "y": 73, "w": 28, "h": 74},
		"rotated": false, 
		"trimmed": true,
		"spriteSourceSize":	{ "x": 27, "y": 3, "w": 28, "h": 74},
		"sourceSize": {"w": 80, "h": 80}
	} }  
}