
{"frames": { 
	"spinner_0000":{
		"originalTrimmedName" : "spinner_0000",
		"frame" : {"x": 1, "y": 1, "w": 87, "h": 87},
		"rotated": false, 
		"trimmed": false,
		"spriteSourceSize":	{ "x": 0, "y": 0, "w": 87, "h": 87},
		"sourceSize": {"w": 87, "h": 87}
	},  
	"spinner_0001":{
		"originalTrimmedName" : "spinner_0001",
		"frame" : {"x": 1, "y": 90, "w": 87, "h": 87},
		"rotated": false, 
		"trimmed": false,
		"spriteSourceSize":	{ "x": 0, "y": 0, "w": 87, "h": 87},
		"sourceSize": {"w": 87, "h": 87}
	},  
	"spinner_0002":{
		"originalTrimmedName" : "spinner_0002",
		"frame" : {"x": 1, "y": 179, "w": 87, "h": 87},
		"rotated": false, 
		"trimmed": false,
		"spriteSourceSize":	{ "x": 0, "y": 0, "w": 87, "h": 87},
		"sourceSize": {"w": 87, "h": 87}
	},  
	"spinner_0003":{
		"originalTrimmedName" : "spinner_0003",
		"frame" : {"x": 1, "y": 268, "w": 87, "h": 87},
		"rotated": false, 
		"trimmed": false,
		"spriteSourceSize":	{ "x": 0, "y": 0, "w": 87, "h": 87},
		"sourceSize": {"w": 87, "h": 87}
	},  
	"spinner_0004":{
		"originalTrimmedName" : "spinner_0004",
		"frame" : {"x": 1, "y": 357, "w": 87, "h": 87},
		"rotated": false, 
		"trimmed": false,
		"spriteSourceSize":	{ "x": 0, "y": 0, "w": 87, "h": 87},
		"sourceSize": {"w": 87, "h": 87}
	},  
	"spinner_0005":{
		"originalTrimmedName" : "spinner_0005",
		"frame" : {"x": 90, "y": 1, "w": 87, "h": 87},
		"rotated": false, 
		"trimmed": false,
		"spriteSourceSize":	{ "x": 0, "y": 0, "w": 87, "h": 87},
		"sourceSize": {"w": 87, "h": 87}
	},  
	"spinner_0006":{
		"originalTrimmedName" : "spinner_0006",
		"frame" : {"x": 179, "y": 1, "w": 87, "h": 87},
		"rotated": false, 
		"trimmed": false,
		"spriteSourceSize":	{ "x": 0, "y": 0, "w": 87, "h": 87},
		"sourceSize": {"w": 87, "h": 87}
	},  
	"spinner_0007":{
		"originalTrimmedName" : "spinner_0007",
		"frame" : {"x": 268, "y": 1, "w": 87, "h": 87},
		"rotated": false, 
		"trimmed": false,
		"spriteSourceSize":	{ "x": 0, "y": 0, "w": 87, "h": 87},
		"sourceSize": {"w": 87, "h": 87}
	},  
	"spinner_0008":{
		"originalTrimmedName" : "spinner_0008",
		"frame" : {"x": 357, "y": 1, "w": 87, "h": 87},
		"rotated": false, 
		"trimmed": false,
		"spriteSourceSize":	{ "x": 0, "y": 0, "w": 87, "h": 87},
		"sourceSize": {"w": 87, "h": 87}
	},  
	"spinner_0009":{
		"originalTrimmedName" : "spinner_0009",
		"frame" : {"x": 90, "y": 90, "w": 87, "h": 87},
		"rotated": false, 
		"trimmed": false,
		"spriteSourceSize":	{ "x": 0, "y": 0, "w": 87, "h": 87},
		"sourceSize": {"w": 87, "h": 87}
	},  
	"spinner_0010":{
		"originalTrimmedName" : "spinner_0010",
		"frame" : {"x": 90, "y": 179, "w": 87, "h": 87},
		"rotated": false, 
		"trimmed": false,
		"spriteSourceSize":	{ "x": 0, "y": 0, "w": 87, "h": 87},
		"sourceSize": {"w": 87, "h": 87}
	},  
	"spinner_0011":{
		"originalTrimmedName" : "spinner_0011",
		"frame" : {"x": 90, "y": 268, "w": 87, "h": 87},
		"rotated": false, 
		"trimmed": false,
		"spriteSourceSize":	{ "x": 0, "y": 0, "w": 87, "h": 87},
		"sourceSize": {"w": 87, "h": 87}
	},  
	"spinner_0013":{
		"originalTrimmedName" : "spinner_0013",
		"frame" : {"x": 90, "y": 357, "w": 87, "h": 87},
		"rotated": false, 
		"trimmed": false,
		"spriteSourceSize":	{ "x": 0, "y": 0, "w": 87, "h": 87},
		"sourceSize": {"w": 87, "h": 87}
	},  
	"spinner_0014":{
		"originalTrimmedName" : "spinner_0014",
		"frame" : {"x": 179, "y": 90, "w": 87, "h": 87},
		"rotated": false, 
		"trimmed": false,
		"spriteSourceSize":	{ "x": 0, "y": 0, "w": 87, "h": 87},
		"sourceSize": {"w": 87, "h": 87}
	},  
	"spinner_0015":{
		"originalTrimmedName" : "spinner_0015",
		"frame" : {"x": 268, "y": 90, "w": 87, "h": 87},
		"rotated": false, 
		"trimmed": false,
		"spriteSourceSize":	{ "x": 0, "y": 0, "w": 87, "h": 87},
		"sourceSize": {"w": 87, "h": 87}
	},  
	"spinner_0016":{
		"originalTrimmedName" : "spinner_0016",
		"frame" : {"x": 357, "y": 90, "w": 87, "h": 87},
		"rotated": false, 
		"trimmed": false,
		"spriteSourceSize":	{ "x": 0, "y": 0, "w": 87, "h": 87},
		"sourceSize": {"w": 87, "h": 87}
	},  
	"spinner_0017":{
		"originalTrimmedName" : "spinner_0017",
		"frame" : {"x": 179, "y": 179, "w": 87, "h": 87},
		"rotated": false, 
		"trimmed": false,
		"spriteSourceSize":	{ "x": 0, "y": 0, "w": 87, "h": 87},
		"sourceSize": {"w": 87, "h": 87}
	},  
	"spinner_0018":{
		"originalTrimmedName" : "spinner_0018",
		"frame" : {"x": 179, "y": 268, "w": 87, "h": 87},
		"rotated": false, 
		"trimmed": false,
		"spriteSourceSize":	{ "x": 0, "y": 0, "w": 87, "h": 87},
		"sourceSize": {"w": 87, "h": 87}
	} }  
}