
{"frames": { 
	"$":{
		"originalTrimmedName" : "Ancient_Plate/$",
		"frame" : {"x": 142, "y": 1190, "w": 135, "h": 202},
		"rotated": false, 
		"trimmed": true,
		"spriteSourceSize":	{ "x": 4, "y": 0, "w": 135, "h": 202},
		"sourceSize": {"w": 140, "h": 210}
	},  
	"0":{
		"originalTrimmedName" : "Ancient_Plate/0",
		"frame" : {"x": 2, "y": 1261, "w": 132, "h": 210},
		"rotated": false, 
		"trimmed": true,
		"spriteSourceSize":	{ "x": 2, "y": 0, "w": 132, "h": 210},
		"sourceSize": {"w": 140, "h": 210}
	},  
	"1":{
		"originalTrimmedName" : "Ancient_Plate/1",
		"frame" : {"x": 895, "y": 783, "w": 127, "h": 210},
		"rotated": false, 
		"trimmed": true,
		"spriteSourceSize":	{ "x": 0, "y": 0, "w": 127, "h": 210},
		"sourceSize": {"w": 140, "h": 210}
	},  
	"2":{
		"originalTrimmedName" : "Ancient_Plate/2",
		"frame" : {"x": 754, "y": 497, "w": 140, "h": 210},
		"rotated": false, 
		"trimmed": false,
		"spriteSourceSize":	{ "x": 0, "y": 0, "w": 140, "h": 210},
		"sourceSize": {"w": 140, "h": 210}
	},  
	"3":{
		"originalTrimmedName" : "Ancient_Plate/3",
		"frame" : {"x": 753, "y": 709, "w": 140, "h": 210},
		"rotated": false, 
		"trimmed": false,
		"spriteSourceSize":	{ "x": 0, "y": 0, "w": 140, "h": 210},
		"sourceSize": {"w": 140, "h": 210}
	},  
	"4":{
		"originalTrimmedName" : "Ancient_Plate/4",
		"frame" : {"x": 691, "y": 1133, "w": 132, "h": 207},
		"rotated": false, 
		"trimmed": true,
		"spriteSourceSize":	{ "x": 7, "y": 0, "w": 132, "h": 207},
		"sourceSize": {"w": 140, "h": 210}
	},  
	"5":{
		"originalTrimmedName" : "Ancient_Plate/5",
		"frame" : {"x": 2, "y": 1049, "w": 138, "h": 210},
		"rotated": false, 
		"trimmed": true,
		"spriteSourceSize":	{ "x": 2, "y": 0, "w": 138, "h": 210},
		"sourceSize": {"w": 140, "h": 210}
	},  
	"6":{
		"originalTrimmedName" : "Ancient_Plate/6",
		"frame" : {"x": 301, "y": 1138, "w": 136, "h": 210},
		"rotated": false, 
		"trimmed": true,
		"spriteSourceSize":	{ "x": 4, "y": 0, "w": 136, "h": 210},
		"sourceSize": {"w": 140, "h": 210}
	},  
	"7":{
		"originalTrimmedName" : "Ancient_Plate/7",
		"frame" : {"x": 552, "y": 942, "w": 137, "h": 209},
		"rotated": false, 
		"trimmed": true,
		"spriteSourceSize":	{ "x": 0, "y": 0, "w": 137, "h": 209},
		"sourceSize": {"w": 140, "h": 210}
	},  
	"8":{
		"originalTrimmedName" : "Ancient_Plate/8",
		"frame" : {"x": 753, "y": 921, "w": 140, "h": 210},
		"rotated": false, 
		"trimmed": false,
		"spriteSourceSize":	{ "x": 0, "y": 0, "w": 140, "h": 210},
		"sourceSize": {"w": 140, "h": 210}
	},  
	"9":{
		"originalTrimmedName" : "Ancient_Plate/9",
		"frame" : {"x": 301, "y": 926, "w": 140, "h": 210},
		"rotated": false, 
		"trimmed": false,
		"spriteSourceSize":	{ "x": 0, "y": 0, "w": 140, "h": 210},
		"sourceSize": {"w": 140, "h": 210}
	},  
	"comma":{
		"originalTrimmedName" : "Ancient_Plate/comma",
		"frame" : {"x": 548, "y": 1514, "w": 95, "h": 101},
		"rotated": false, 
		"trimmed": true,
		"spriteSourceSize":	{ "x": 19, "y": 109, "w": 95, "h": 101},
		"sourceSize": {"w": 140, "h": 210}
	},  
	"dot":{
		"originalTrimmedName" : "Ancient_Plate/dot",
		"frame" : {"x": 920, "y": 2, "w": 97, "h": 95},
		"rotated": false, 
		"trimmed": true,
		"spriteSourceSize":	{ "x": 18, "y": 115, "w": 97, "h": 95},
		"sourceSize": {"w": 140, "h": 210}
	},  
	"Sorry_try_again":{
		"originalTrimmedName" : "Ancient_Plate/Sorry_try_again",
		"frame" : {"x": 2, "y": 2, "w": 916, "h": 493},
		"rotated": false, 
		"trimmed": true,
		"spriteSourceSize":	{ "x": 0, "y": 160, "w": 916, "h": 493},
		"sourceSize": {"w": 916, "h": 772}
	},  
	"Larrow_Normal":{
		"originalTrimmedName" : "Arrows/Left_arrow/Larrow_Normal",
		"frame" : {"x": 192, "y": 782, "w": 107, "h": 202},
		"rotated": false, 
		"trimmed": true,
		"spriteSourceSize":	{ "x": 1022, "y": 822, "w": 107, "h": 202},
		"sourceSize": {"w": 2520, "h": 1080}
	},  
	"Larrow_Off":{
		"originalTrimmedName" : "Arrows/Left_arrow/Larrow_Off",
		"frame" : {"x": 896, "y": 579, "w": 107, "h": 202},
		"rotated": false, 
		"trimmed": true,
		"spriteSourceSize":	{ "x": 1022, "y": 822, "w": 107, "h": 202},
		"sourceSize": {"w": 2520, "h": 1080}
	},  
	"Larrow_Over":{
		"originalTrimmedName" : "Arrows/Left_arrow/Larrow_Over",
		"frame" : {"x": 895, "y": 995, "w": 107, "h": 202},
		"rotated": false, 
		"trimmed": true,
		"spriteSourceSize":	{ "x": 1022, "y": 822, "w": 107, "h": 202},
		"sourceSize": {"w": 2520, "h": 1080}
	},  
	"Larrow_Press":{
		"originalTrimmedName" : "Arrows/Left_arrow/Larrow_Press",
		"frame" : {"x": 192, "y": 986, "w": 107, "h": 202},
		"rotated": false, 
		"trimmed": true,
		"spriteSourceSize":	{ "x": 1022, "y": 822, "w": 107, "h": 202},
		"sourceSize": {"w": 2520, "h": 1080}
	},  
	"RLarrow_Normal":{
		"originalTrimmedName" : "Arrows/Right_arrow/RLarrow_Normal",
		"frame" : {"x": 443, "y": 926, "w": 107, "h": 202},
		"rotated": false, 
		"trimmed": true,
		"spriteSourceSize":	{ "x": 1391, "y": 822, "w": 107, "h": 202},
		"sourceSize": {"w": 2520, "h": 1080}
	},  
	"RLarrow_Off":{
		"originalTrimmedName" : "Arrows/Right_arrow/RLarrow_Off",
		"frame" : {"x": 443, "y": 1130, "w": 107, "h": 202},
		"rotated": false, 
		"trimmed": true,
		"spriteSourceSize":	{ "x": 1391, "y": 822, "w": 107, "h": 202},
		"sourceSize": {"w": 2520, "h": 1080}
	},  
	"RLarrow_Over":{
		"originalTrimmedName" : "Arrows/Right_arrow/RLarrow_Over",
		"frame" : {"x": 439, "y": 1334, "w": 107, "h": 202},
		"rotated": false, 
		"trimmed": true,
		"spriteSourceSize":	{ "x": 1391, "y": 822, "w": 107, "h": 202},
		"sourceSize": {"w": 2520, "h": 1080}
	},  
	"RLarrow_Press":{
		"originalTrimmedName" : "Arrows/Right_arrow/RLarrow_Press",
		"frame" : {"x": 2, "y": 1473, "w": 107, "h": 202},
		"rotated": false, 
		"trimmed": true,
		"spriteSourceSize":	{ "x": 1391, "y": 822, "w": 107, "h": 202},
		"sourceSize": {"w": 2520, "h": 1080}
	},  
	"$1_Normal":{
		"originalTrimmedName" : "Bets/$1/$1_Normal",
		"frame" : {"x": 742, "y": 1578, "w": 95, "h": 92},
		"rotated": false, 
		"trimmed": true,
		"spriteSourceSize":	{ "x": 1449, "y": 852, "w": 95, "h": 92},
		"sourceSize": {"w": 2520, "h": 1080}
	},  
	"$1_Off":{
		"originalTrimmedName" : "Bets/$1/$1_Off",
		"frame" : {"x": 839, "y": 1671, "w": 95, "h": 92},
		"rotated": false, 
		"trimmed": true,
		"spriteSourceSize":	{ "x": 1449, "y": 852, "w": 95, "h": 92},
		"sourceSize": {"w": 2520, "h": 1080}
	},  
	"$1_Over":{
		"originalTrimmedName" : "Bets/$1/$1_Over",
		"frame" : {"x": 210, "y": 1535, "w": 95, "h": 92},
		"rotated": false, 
		"trimmed": true,
		"spriteSourceSize":	{ "x": 1449, "y": 852, "w": 95, "h": 92},
		"sourceSize": {"w": 2520, "h": 1080}
	},  
	"$1_Select":{
		"originalTrimmedName" : "Bets/$1/$1_Select",
		"frame" : {"x": 111, "y": 1579, "w": 95, "h": 92},
		"rotated": false, 
		"trimmed": true,
		"spriteSourceSize":	{ "x": 1449, "y": 852, "w": 95, "h": 92},
		"sourceSize": {"w": 2520, "h": 1080}
	},  
	"$2_Normal":{
		"originalTrimmedName" : "Bets/$2/$2_Normal",
		"frame" : {"x": 924, "y": 1199, "w": 97, "h": 92},
		"rotated": false, 
		"trimmed": true,
		"spriteSourceSize":	{ "x": 1540, "y": 852, "w": 97, "h": 92},
		"sourceSize": {"w": 2520, "h": 1080}
	},  
	"$2_Off":{
		"originalTrimmedName" : "Bets/$2/$2_Off",
		"frame" : {"x": 924, "y": 1293, "w": 97, "h": 92},
		"rotated": false, 
		"trimmed": true,
		"spriteSourceSize":	{ "x": 1540, "y": 852, "w": 97, "h": 92},
		"sourceSize": {"w": 2520, "h": 1080}
	},  
	"$2_Over":{
		"originalTrimmedName" : "Bets/$2/$2_Over",
		"frame" : {"x": 825, "y": 1295, "w": 97, "h": 92},
		"rotated": false, 
		"trimmed": true,
		"spriteSourceSize":	{ "x": 1540, "y": 852, "w": 97, "h": 92},
		"sourceSize": {"w": 2520, "h": 1080}
	},  
	"$2_Select":{
		"originalTrimmedName" : "Bets/$2/$2_Select",
		"frame" : {"x": 924, "y": 1387, "w": 97, "h": 92},
		"rotated": false, 
		"trimmed": true,
		"spriteSourceSize":	{ "x": 1540, "y": 852, "w": 97, "h": 92},
		"sourceSize": {"w": 2520, "h": 1080}
	},  
	"$3_Normal":{
		"originalTrimmedName" : "Bets/$3/$3_Normal",
		"frame" : {"x": 682, "y": 1342, "w": 97, "h": 92},
		"rotated": false, 
		"trimmed": true,
		"spriteSourceSize":	{ "x": 1630, "y": 852, "w": 97, "h": 92},
		"sourceSize": {"w": 2520, "h": 1080}
	},  
	"$3_Off":{
		"originalTrimmedName" : "Bets/$3/$3_Off",
		"frame" : {"x": 548, "y": 1420, "w": 97, "h": 92},
		"rotated": false, 
		"trimmed": true,
		"spriteSourceSize":	{ "x": 1630, "y": 852, "w": 97, "h": 92},
		"sourceSize": {"w": 2520, "h": 1080}
	},  
	"$3_Over":{
		"originalTrimmedName" : "Bets/$3/$3_Over",
		"frame" : {"x": 781, "y": 1389, "w": 97, "h": 92},
		"rotated": false, 
		"trimmed": true,
		"spriteSourceSize":	{ "x": 1630, "y": 852, "w": 97, "h": 92},
		"sourceSize": {"w": 2520, "h": 1080}
	},  
	"$3_Select":{
		"originalTrimmedName" : "Bets/$3/$3_Select",
		"frame" : {"x": 647, "y": 1436, "w": 97, "h": 92},
		"rotated": false, 
		"trimmed": true,
		"spriteSourceSize":	{ "x": 1630, "y": 852, "w": 97, "h": 92},
		"sourceSize": {"w": 2520, "h": 1080}
	},  
	"$5_Normal":{
		"originalTrimmedName" : "Bets/$5/$5_Normal",
		"frame" : {"x": 880, "y": 1481, "w": 95, "h": 93},
		"rotated": false, 
		"trimmed": true,
		"spriteSourceSize":	{ "x": 1449, "y": 937, "w": 95, "h": 93},
		"sourceSize": {"w": 2520, "h": 1080}
	},  
	"$5_Off":{
		"originalTrimmedName" : "Bets/$5/$5_Off",
		"frame" : {"x": 746, "y": 1483, "w": 95, "h": 93},
		"rotated": false, 
		"trimmed": true,
		"spriteSourceSize":	{ "x": 1449, "y": 937, "w": 95, "h": 93},
		"sourceSize": {"w": 2520, "h": 1080}
	},  
	"$5_Over":{
		"originalTrimmedName" : "Bets/$5/$5_Over",
		"frame" : {"x": 645, "y": 1530, "w": 95, "h": 93},
		"rotated": false, 
		"trimmed": true,
		"spriteSourceSize":	{ "x": 1449, "y": 937, "w": 95, "h": 93},
		"sourceSize": {"w": 2520, "h": 1080}
	},  
	"$5_Select":{
		"originalTrimmedName" : "Bets/$5/$5_Select",
		"frame" : {"x": 843, "y": 1576, "w": 95, "h": 93},
		"rotated": false, 
		"trimmed": true,
		"spriteSourceSize":	{ "x": 1449, "y": 937, "w": 95, "h": 93},
		"sourceSize": {"w": 2520, "h": 1080}
	},  
	"$10_Normal":{
		"originalTrimmedName" : "Bets/$10/$10_Normal",
		"frame" : {"x": 920, "y": 99, "w": 97, "h": 94},
		"rotated": false, 
		"trimmed": true,
		"spriteSourceSize":	{ "x": 1540, "y": 937, "w": 97, "h": 94},
		"sourceSize": {"w": 2520, "h": 1080}
	},  
	"$10_Off":{
		"originalTrimmedName" : "Bets/$10/$10_Off",
		"frame" : {"x": 920, "y": 195, "w": 97, "h": 94},
		"rotated": false, 
		"trimmed": true,
		"spriteSourceSize":	{ "x": 1540, "y": 937, "w": 97, "h": 94},
		"sourceSize": {"w": 2520, "h": 1080}
	},  
	"$10_Over":{
		"originalTrimmedName" : "Bets/$10/$10_Over",
		"frame" : {"x": 920, "y": 291, "w": 97, "h": 94},
		"rotated": false, 
		"trimmed": true,
		"spriteSourceSize":	{ "x": 1540, "y": 937, "w": 97, "h": 94},
		"sourceSize": {"w": 2520, "h": 1080}
	},  
	"$10_Select":{
		"originalTrimmedName" : "Bets/$10/$10_Select",
		"frame" : {"x": 920, "y": 387, "w": 97, "h": 94},
		"rotated": false, 
		"trimmed": true,
		"spriteSourceSize":	{ "x": 1540, "y": 937, "w": 97, "h": 94},
		"sourceSize": {"w": 2520, "h": 1080}
	},  
	"$20_Normal":{
		"originalTrimmedName" : "Bets/$20/$20_Normal",
		"frame" : {"x": 920, "y": 483, "w": 97, "h": 94},
		"rotated": false, 
		"trimmed": true,
		"spriteSourceSize":	{ "x": 1630, "y": 937, "w": 97, "h": 94},
		"sourceSize": {"w": 2520, "h": 1080}
	},  
	"$20_Off":{
		"originalTrimmedName" : "Bets/$20/$20_Off",
		"frame" : {"x": 266, "y": 1439, "w": 97, "h": 94},
		"rotated": false, 
		"trimmed": true,
		"spriteSourceSize":	{ "x": 1630, "y": 937, "w": 97, "h": 94},
		"sourceSize": {"w": 2520, "h": 1080}
	},  
	"$20_Over":{
		"originalTrimmedName" : "Bets/$20/$20_Over",
		"frame" : {"x": 111, "y": 1483, "w": 97, "h": 94},
		"rotated": false, 
		"trimmed": true,
		"spriteSourceSize":	{ "x": 1630, "y": 937, "w": 97, "h": 94},
		"sourceSize": {"w": 2520, "h": 1080}
	},  
	"$20_Select":{
		"originalTrimmedName" : "Bets/$20/$20_Select",
		"frame" : {"x": 825, "y": 1199, "w": 97, "h": 94},
		"rotated": false, 
		"trimmed": true,
		"spriteSourceSize":	{ "x": 1630, "y": 937, "w": 97, "h": 94},
		"sourceSize": {"w": 2520, "h": 1080}
	},  
	"box":{
		"originalTrimmedName" : "box",
		"frame" : {"x": 2, "y": 497, "w": 304, "h": 283},
		"rotated": false, 
		"trimmed": true,
		"spriteSourceSize":	{ "x": 1110, "y": 783, "w": 304, "h": 283},
		"sourceSize": {"w": 2520, "h": 1080}
	},  
	"Exit_Normal":{
		"originalTrimmedName" : "Exit_Help_Sound/Exit/Exit_Normal",
		"frame" : {"x": 2, "y": 782, "w": 188, "h": 87},
		"rotated": false, 
		"trimmed": true,
		"spriteSourceSize":	{ "x": 569, "y": 940, "w": 188, "h": 87},
		"sourceSize": {"w": 2520, "h": 1080}
	},  
	"Exit_Off":{
		"originalTrimmedName" : "Exit_Help_Sound/Exit/Exit_Off",
		"frame" : {"x": 2, "y": 871, "w": 188, "h": 87},
		"rotated": false, 
		"trimmed": true,
		"spriteSourceSize":	{ "x": 569, "y": 940, "w": 188, "h": 87},
		"sourceSize": {"w": 2520, "h": 1080}
	},  
	"Exit_Over":{
		"originalTrimmedName" : "Exit_Help_Sound/Exit/Exit_Over",
		"frame" : {"x": 2, "y": 960, "w": 188, "h": 87},
		"rotated": false, 
		"trimmed": true,
		"spriteSourceSize":	{ "x": 569, "y": 940, "w": 188, "h": 87},
		"sourceSize": {"w": 2520, "h": 1080}
	},  
	"Exit_Press":{
		"originalTrimmedName" : "Exit_Help_Sound/Exit/Exit_Press",
		"frame" : {"x": 564, "y": 497, "w": 188, "h": 87},
		"rotated": false, 
		"trimmed": true,
		"spriteSourceSize":	{ "x": 569, "y": 940, "w": 188, "h": 87},
		"sourceSize": {"w": 2520, "h": 1080}
	},  
	"Help_Normal":{
		"originalTrimmedName" : "Exit_Help_Sound/Help/Help_Normal",
		"frame" : {"x": 564, "y": 586, "w": 187, "h": 87},
		"rotated": false, 
		"trimmed": true,
		"spriteSourceSize":	{ "x": 753, "y": 940, "w": 187, "h": 87},
		"sourceSize": {"w": 2520, "h": 1080}
	},  
	"Help_Off":{
		"originalTrimmedName" : "Exit_Help_Sound/Help/Help_Off",
		"frame" : {"x": 564, "y": 675, "w": 187, "h": 87},
		"rotated": false, 
		"trimmed": true,
		"spriteSourceSize":	{ "x": 753, "y": 940, "w": 187, "h": 87},
		"sourceSize": {"w": 2520, "h": 1080}
	},  
	"Help_Over":{
		"originalTrimmedName" : "Exit_Help_Sound/Help/Help_Over",
		"frame" : {"x": 564, "y": 764, "w": 187, "h": 87},
		"rotated": false, 
		"trimmed": true,
		"spriteSourceSize":	{ "x": 753, "y": 940, "w": 187, "h": 87},
		"sourceSize": {"w": 2520, "h": 1080}
	},  
	"Help_Press":{
		"originalTrimmedName" : "Exit_Help_Sound/Help/Help_Press",
		"frame" : {"x": 564, "y": 853, "w": 187, "h": 87},
		"rotated": false, 
		"trimmed": true,
		"spriteSourceSize":	{ "x": 753, "y": 940, "w": 187, "h": 87},
		"sourceSize": {"w": 2520, "h": 1080}
	},  
	"Sound_disable":{
		"originalTrimmedName" : "Exit_Help_Sound/Sound/Sound_disable",
		"frame" : {"x": 136, "y": 1394, "w": 128, "h": 87},
		"rotated": false, 
		"trimmed": true,
		"spriteSourceSize":	{ "x": 937, "y": 940, "w": 128, "h": 87},
		"sourceSize": {"w": 2520, "h": 1080}
	},  
	"Sound_Normal":{
		"originalTrimmedName" : "Exit_Help_Sound/Sound/Sound_Normal",
		"frame" : {"x": 552, "y": 1153, "w": 128, "h": 87},
		"rotated": false, 
		"trimmed": true,
		"spriteSourceSize":	{ "x": 937, "y": 940, "w": 128, "h": 87},
		"sourceSize": {"w": 2520, "h": 1080}
	},  
	"Sound_Off":{
		"originalTrimmedName" : "Exit_Help_Sound/Sound/Sound_Off",
		"frame" : {"x": 552, "y": 1242, "w": 128, "h": 87},
		"rotated": false, 
		"trimmed": true,
		"spriteSourceSize":	{ "x": 937, "y": 940, "w": 128, "h": 87},
		"sourceSize": {"w": 2520, "h": 1080}
	},  
	"Sound_Over":{
		"originalTrimmedName" : "Exit_Help_Sound/Sound/Sound_Over",
		"frame" : {"x": 552, "y": 1331, "w": 128, "h": 87},
		"rotated": false, 
		"trimmed": true,
		"spriteSourceSize":	{ "x": 937, "y": 940, "w": 128, "h": 87},
		"sourceSize": {"w": 2520, "h": 1080}
	},  
	"Sound_Press":{
		"originalTrimmedName" : "Exit_Help_Sound/Sound/Sound_Press",
		"frame" : {"x": 279, "y": 1350, "w": 128, "h": 87},
		"rotated": false, 
		"trimmed": true,
		"spriteSourceSize":	{ "x": 937, "y": 940, "w": 128, "h": 87},
		"sourceSize": {"w": 2520, "h": 1080}
	},  
	"test":{
		"originalTrimmedName" : "test",
		"frame" : {"x": 308, "y": 497, "w": 254, "h": 427},
		"rotated": false, 
		"trimmed": true,
		"spriteSourceSize":	{ "x": 122, "y": 45, "w": 254, "h": 427},
		"sourceSize": {"w": 512, "h": 512}
	} }  
}