
{"frames": { 
	"Arrow_Down_OFF":{
		"originalTrimmedName" : "Arrow_Down_OFF",
		"frame" : {"x": 348, "y": 601, "w": 261, "h": 249},
		"rotated": false, 
		"trimmed": true,
		"spriteSourceSize":	{ "x": 1492, "y": 717, "w": 261, "h": 249},
		"sourceSize": {"w": 2520, "h": 1080}
	},  
	"Arrow_Down_ON":{
		"originalTrimmedName" : "Arrow_Down_ON",
		"frame" : {"x": 447, "y": 199, "w": 261, "h": 249},
		"rotated": false, 
		"trimmed": true,
		"spriteSourceSize":	{ "x": 1492, "y": 717, "w": 261, "h": 249},
		"sourceSize": {"w": 2520, "h": 1080}
	},  
	"Arrow_Up_OFF":{
		"originalTrimmedName" : "Arrow_Up_OFF",
		"frame" : {"x": 609, "y": 575, "w": 261, "h": 241},
		"rotated": false, 
		"trimmed": true,
		"spriteSourceSize":	{ "x": 1492, "y": 565, "w": 261, "h": 241},
		"sourceSize": {"w": 2520, "h": 1080}
	},  
	"Arrow_Up_ON":{
		"originalTrimmedName" : "Arrow_Up_ON",
		"frame" : {"x": 708, "y": 199, "w": 261, "h": 241},
		"rotated": false, 
		"trimmed": true,
		"spriteSourceSize":	{ "x": 1492, "y": 565, "w": 261, "h": 241},
		"sourceSize": {"w": 2520, "h": 1080}
	},  
	"AutoPlay_Bar_OFF":{
		"originalTrimmedName" : "AutoPlay_Bar_OFF",
		"frame" : {"x": 0, "y": 632, "w": 174, "h": 275},
		"rotated": false, 
		"trimmed": true,
		"spriteSourceSize":	{ "x": 1777, "y": 782, "w": 174, "h": 275},
		"sourceSize": {"w": 2520, "h": 1080}
	},  
	"AutoPlay_Bar_ON":{
		"originalTrimmedName" : "AutoPlay_Bar_ON",
		"frame" : {"x": 174, "y": 632, "w": 174, "h": 275},
		"rotated": false, 
		"trimmed": true,
		"spriteSourceSize":	{ "x": 1776, "y": 782, "w": 174, "h": 275},
		"sourceSize": {"w": 2520, "h": 1080}
	},  
	"AutoPlay_Bar_OVER":{
		"originalTrimmedName" : "AutoPlay_Bar_OVER",
		"frame" : {"x": 273, "y": 199, "w": 174, "h": 275},
		"rotated": false, 
		"trimmed": true,
		"spriteSourceSize":	{ "x": 1777, "y": 782, "w": 174, "h": 275},
		"sourceSize": {"w": 2520, "h": 1080}
	},  
	"AutoPlay_Minus_OFF":{
		"originalTrimmedName" : "AutoPlay_Minus_OFF",
		"frame" : {"x": 288, "y": 907, "w": 91, "h": 91},
		"rotated": false, 
		"trimmed": true,
		"spriteSourceSize":	{ "x": 1896, "y": 901, "w": 91, "h": 91},
		"sourceSize": {"w": 2520, "h": 1080}
	},  
	"AutoPlay_Minus_ON":{
		"originalTrimmedName" : "AutoPlay_Minus_ON",
		"frame" : {"x": 1557, "y": 401, "w": 91, "h": 91},
		"rotated": false, 
		"trimmed": true,
		"spriteSourceSize":	{ "x": 1896, "y": 901, "w": 91, "h": 91},
		"sourceSize": {"w": 2520, "h": 1080}
	},  
	"AutoPlay_Minus_OVER":{
		"originalTrimmedName" : "AutoPlay_Minus_OVER",
		"frame" : {"x": 1477, "y": 829, "w": 91, "h": 91},
		"rotated": false, 
		"trimmed": true,
		"spriteSourceSize":	{ "x": 1896, "y": 901, "w": 91, "h": 91},
		"sourceSize": {"w": 2520, "h": 1080}
	},  
	"AutoPlay_Plus_OFF":{
		"originalTrimmedName" : "AutoPlay_Plus_OFF",
		"frame" : {"x": 1477, "y": 920, "w": 91, "h": 91},
		"rotated": false, 
		"trimmed": true,
		"spriteSourceSize":	{ "x": 1896, "y": 784, "w": 91, "h": 91},
		"sourceSize": {"w": 2520, "h": 1080}
	},  
	"AutoPlay_Plus_ON":{
		"originalTrimmedName" : "AutoPlay_Plus_ON",
		"frame" : {"x": 1568, "y": 829, "w": 91, "h": 91},
		"rotated": false, 
		"trimmed": true,
		"spriteSourceSize":	{ "x": 1896, "y": 784, "w": 91, "h": 91},
		"sourceSize": {"w": 2520, "h": 1080}
	},  
	"AutoPlay_Plus_OVER":{
		"originalTrimmedName" : "AutoPlay_Plus_OVER",
		"frame" : {"x": 1568, "y": 920, "w": 91, "h": 91},
		"rotated": false, 
		"trimmed": true,
		"spriteSourceSize":	{ "x": 1896, "y": 784, "w": 91, "h": 91},
		"sourceSize": {"w": 2520, "h": 1080}
	},  
	"ExtraBar":{
		"originalTrimmedName" : "ExtraBar",
		"frame" : {"x": 1477, "y": 744, "w": 555, "h": 85},
		"rotated": false, 
		"trimmed": true,
		"spriteSourceSize":	{ "x": 982, "y": 959, "w": 555, "h": 85},
		"sourceSize": {"w": 2520, "h": 1080}
	},  
	"GameRules_OFF":{
		"originalTrimmedName" : "GameRules_OFF",
		"frame" : {"x": 1706, "y": 199, "w": 233, "h": 80},
		"rotated": false, 
		"trimmed": true,
		"spriteSourceSize":	{ "x": 616, "y": 64, "w": 233, "h": 80},
		"sourceSize": {"w": 2520, "h": 1080}
	},  
	"GameRules_ON":{
		"originalTrimmedName" : "GameRules_ON",
		"frame" : {"x": 1659, "y": 829, "w": 233, "h": 80},
		"rotated": false, 
		"trimmed": true,
		"spriteSourceSize":	{ "x": 616, "y": 64, "w": 233, "h": 80},
		"sourceSize": {"w": 2520, "h": 1080}
	},  
	"GameRules_OVER":{
		"originalTrimmedName" : "GameRules_OVER",
		"frame" : {"x": 1659, "y": 909, "w": 233, "h": 80},
		"rotated": false, 
		"trimmed": true,
		"spriteSourceSize":	{ "x": 616, "y": 64, "w": 233, "h": 80},
		"sourceSize": {"w": 2520, "h": 1080}
	},  
	"HelpButton_OFF":{
		"originalTrimmedName" : "HelpButton_OFF",
		"frame" : {"x": 689, "y": 448, "w": 127, "h": 127},
		"rotated": false, 
		"trimmed": true,
		"spriteSourceSize":	{ "x": 818, "y": 936, "w": 127, "h": 127},
		"sourceSize": {"w": 2520, "h": 1080}
	},  
	"HelpButton_ON":{
		"originalTrimmedName" : "HelpButton_ON",
		"frame" : {"x": 816, "y": 440, "w": 127, "h": 127},
		"rotated": false, 
		"trimmed": true,
		"spriteSourceSize":	{ "x": 818, "y": 936, "w": 127, "h": 127},
		"sourceSize": {"w": 2520, "h": 1080}
	},  
	"HelpButton_OVER":{
		"originalTrimmedName" : "HelpButton_OVER",
		"frame" : {"x": 943, "y": 440, "w": 127, "h": 127},
		"rotated": false, 
		"trimmed": true,
		"spriteSourceSize":	{ "x": 818, "y": 936, "w": 127, "h": 127},
		"sourceSize": {"w": 2520, "h": 1080}
	},  
	"HomeButton_OFF":{
		"originalTrimmedName" : "HomeButton_OFF",
		"frame" : {"x": 1070, "y": 408, "w": 127, "h": 127},
		"rotated": false, 
		"trimmed": true,
		"spriteSourceSize":	{ "x": 537, "y": 936, "w": 127, "h": 127},
		"sourceSize": {"w": 2520, "h": 1080}
	},  
	"HomeButton_ON":{
		"originalTrimmedName" : "HomeButton_ON",
		"frame" : {"x": 551, "y": 448, "w": 138, "h": 127},
		"rotated": false, 
		"trimmed": true,
		"spriteSourceSize":	{ "x": 537, "y": 936, "w": 138, "h": 127},
		"sourceSize": {"w": 2520, "h": 1080}
	},  
	"HomeButton_OVER":{
		"originalTrimmedName" : "HomeButton_OVER",
		"frame" : {"x": 1197, "y": 408, "w": 127, "h": 127},
		"rotated": false, 
		"trimmed": true,
		"spriteSourceSize":	{ "x": 537, "y": 936, "w": 127, "h": 127},
		"sourceSize": {"w": 2520, "h": 1080}
	},  
	"MenuBar":{
		"originalTrimmedName" : "MenuBar",
		"frame" : {"x": 0, "y": 0, "w": 1672, "h": 157},
		"rotated": false, 
		"trimmed": true,
		"spriteSourceSize":	{ "x": 426, "y": 923, "w": 1672, "h": 157},
		"sourceSize": {"w": 2520, "h": 1080}
	},  
	"PlayAgainButton_OFF":{
		"originalTrimmedName" : "PlayAgainButton_OFF",
		"frame" : {"x": 870, "y": 567, "w": 209, "h": 209},
		"rotated": false, 
		"trimmed": true,
		"spriteSourceSize":	{ "x": 1759, "y": 823, "w": 209, "h": 209},
		"sourceSize": {"w": 2520, "h": 1080}
	},  
	"PlayAgainButton_ON":{
		"originalTrimmedName" : "PlayAgainButton_ON",
		"frame" : {"x": 969, "y": 199, "w": 209, "h": 209},
		"rotated": false, 
		"trimmed": true,
		"spriteSourceSize":	{ "x": 1759, "y": 823, "w": 209, "h": 209},
		"sourceSize": {"w": 2520, "h": 1080}
	},  
	"PlayAgainButton_OVER":{
		"originalTrimmedName" : "PlayAgainButton_OVER",
		"frame" : {"x": 1178, "y": 199, "w": 209, "h": 209},
		"rotated": false, 
		"trimmed": true,
		"spriteSourceSize":	{ "x": 1759, "y": 823, "w": 209, "h": 209},
		"sourceSize": {"w": 2520, "h": 1080}
	},  
	"PlayButton_OFF":{
		"originalTrimmedName" : "PlayButton_OFF",
		"frame" : {"x": 1059, "y": 776, "w": 209, "h": 209},
		"rotated": false, 
		"trimmed": true,
		"spriteSourceSize":	{ "x": 1759, "y": 823, "w": 209, "h": 209},
		"sourceSize": {"w": 2520, "h": 1080}
	},  
	"PlayButton_ON":{
		"originalTrimmedName" : "PlayButton_ON",
		"frame" : {"x": 1079, "y": 535, "w": 209, "h": 209},
		"rotated": false, 
		"trimmed": true,
		"spriteSourceSize":	{ "x": 1759, "y": 823, "w": 209, "h": 209},
		"sourceSize": {"w": 2520, "h": 1080}
	},  
	"PlayButton_OVER":{
		"originalTrimmedName" : "PlayButton_OVER",
		"frame" : {"x": 1268, "y": 744, "w": 209, "h": 209},
		"rotated": false, 
		"trimmed": true,
		"spriteSourceSize":	{ "x": 1759, "y": 823, "w": 209, "h": 209},
		"sourceSize": {"w": 2520, "h": 1080}
	},  
	"PlayTheGameButton_OFF":{
		"originalTrimmedName" : "PlayTheGameButton_OFF",
		"frame" : {"x": 1387, "y": 157, "w": 233, "h": 122},
		"rotated": false, 
		"trimmed": true,
		"spriteSourceSize":	{ "x": 1144, "y": 894, "w": 233, "h": 122},
		"sourceSize": {"w": 2520, "h": 1080}
	},  
	"PlayTheGameButton_ON":{
		"originalTrimmedName" : "PlayTheGameButton_ON",
		"frame" : {"x": 1324, "y": 408, "w": 233, "h": 122},
		"rotated": false, 
		"trimmed": true,
		"spriteSourceSize":	{ "x": 1144, "y": 894, "w": 233, "h": 122},
		"sourceSize": {"w": 2520, "h": 1080}
	},  
	"PlayTheGameButton_OVER":{
		"originalTrimmedName" : "PlayTheGameButton_OVER",
		"frame" : {"x": 1387, "y": 279, "w": 233, "h": 122},
		"rotated": false, 
		"trimmed": true,
		"spriteSourceSize":	{ "x": 1144, "y": 894, "w": 233, "h": 122},
		"sourceSize": {"w": 2520, "h": 1080}
	},  
	"RevealButton_OFF":{
		"originalTrimmedName" : "RevealButton_OFF",
		"frame" : {"x": 653, "y": 816, "w": 203, "h": 203},
		"rotated": false, 
		"trimmed": true,
		"spriteSourceSize":	{ "x": 1762, "y": 827, "w": 203, "h": 203},
		"sourceSize": {"w": 2520, "h": 1080}
	},  
	"RevealButton_ON":{
		"originalTrimmedName" : "RevealButton_ON",
		"frame" : {"x": 856, "y": 816, "w": 203, "h": 203},
		"rotated": false, 
		"trimmed": true,
		"spriteSourceSize":	{ "x": 1762, "y": 827, "w": 203, "h": 203},
		"sourceSize": {"w": 2520, "h": 1080}
	},  
	"RevealButton_OVER":{
		"originalTrimmedName" : "RevealButton_OVER",
		"frame" : {"x": 1706, "y": 488, "w": 203, "h": 203},
		"rotated": false, 
		"trimmed": true,
		"spriteSourceSize":	{ "x": 1762, "y": 827, "w": 203, "h": 203},
		"sourceSize": {"w": 2520, "h": 1080}
	},  
	"SoundButton_OFF":{
		"originalTrimmedName" : "SoundButton_OFF",
		"frame" : {"x": 273, "y": 474, "w": 139, "h": 127},
		"rotated": false, 
		"trimmed": true,
		"spriteSourceSize":	{ "x": 671, "y": 936, "w": 139, "h": 127},
		"sourceSize": {"w": 2520, "h": 1080}
	},  
	"SoundButton_ON":{
		"originalTrimmedName" : "SoundButton_ON",
		"frame" : {"x": 379, "y": 850, "w": 137, "h": 127},
		"rotated": false, 
		"trimmed": true,
		"spriteSourceSize":	{ "x": 673, "y": 936, "w": 137, "h": 127},
		"sourceSize": {"w": 2520, "h": 1080}
	},  
	"SoundButton_OVER":{
		"originalTrimmedName" : "SoundButton_OVER",
		"frame" : {"x": 412, "y": 474, "w": 139, "h": 127},
		"rotated": false, 
		"trimmed": true,
		"spriteSourceSize":	{ "x": 671, "y": 936, "w": 139, "h": 127},
		"sourceSize": {"w": 2520, "h": 1080}
	},  
	"SoundButton_Strike":{
		"originalTrimmedName" : "SoundButton_Strike",
		"frame" : {"x": 516, "y": 850, "w": 137, "h": 127},
		"rotated": false, 
		"trimmed": true,
		"spriteSourceSize":	{ "x": 673, "y": 936, "w": 137, "h": 127},
		"sourceSize": {"w": 2520, "h": 1080}
	},  
	"StopButton_OFF":{
		"originalTrimmedName" : "StopButton_OFF",
		"frame" : {"x": 1288, "y": 535, "w": 209, "h": 209},
		"rotated": false, 
		"trimmed": true,
		"spriteSourceSize":	{ "x": 1759, "y": 823, "w": 209, "h": 209},
		"sourceSize": {"w": 2520, "h": 1080}
	},  
	"StopButton_ON":{
		"originalTrimmedName" : "StopButton_ON",
		"frame" : {"x": 1497, "y": 530, "w": 209, "h": 209},
		"rotated": false, 
		"trimmed": true,
		"spriteSourceSize":	{ "x": 1759, "y": 823, "w": 209, "h": 209},
		"sourceSize": {"w": 2520, "h": 1080}
	},  
	"StopButton_OVER":{
		"originalTrimmedName" : "StopButton_OVER",
		"frame" : {"x": 1648, "y": 279, "w": 209, "h": 209},
		"rotated": false, 
		"trimmed": true,
		"spriteSourceSize":	{ "x": 1759, "y": 823, "w": 209, "h": 209},
		"sourceSize": {"w": 2520, "h": 1080}
	},  
	"WagerButton_OFF":{
		"originalTrimmedName" : "WagerButton_OFF",
		"frame" : {"x": 1672, "y": 101, "w": 288, "h": 98},
		"rotated": false, 
		"trimmed": true,
		"spriteSourceSize":	{ "x": 1468, "y": 929, "w": 288, "h": 98},
		"sourceSize": {"w": 2520, "h": 1080}
	},  
	"WagerButton_ON":{
		"originalTrimmedName" : "WagerButton_ON",
		"frame" : {"x": 1672, "y": 0, "w": 291, "h": 101},
		"rotated": false, 
		"trimmed": true,
		"spriteSourceSize":	{ "x": 1467, "y": 928, "w": 291, "h": 101},
		"sourceSize": {"w": 2520, "h": 1080}
	},  
	"WagerButton_OVER":{
		"originalTrimmedName" : "WagerButton_OVER",
		"frame" : {"x": 0, "y": 907, "w": 288, "h": 98},
		"rotated": false, 
		"trimmed": true,
		"spriteSourceSize":	{ "x": 1468, "y": 929, "w": 288, "h": 98},
		"sourceSize": {"w": 2520, "h": 1080}
	},  
	"WagerSelectPanel":{
		"originalTrimmedName" : "WagerSelectPanel",
		"frame" : {"x": 0, "y": 199, "w": 273, "h": 433},
		"rotated": false, 
		"trimmed": true,
		"spriteSourceSize":	{ "x": 1486, "y": 588, "w": 273, "h": 433},
		"sourceSize": {"w": 2520, "h": 1080}
	} }  
}