
{"frames": { 
	"Dust_0000":{
		"originalTrimmedName" : "Dust_0000",
		"frame" : {"x": 867, "y": 1, "w": 3, "h": 3},
		"rotated": false, 
		"trimmed": true,
		"spriteSourceSize":	{ "x": 0, "y": 0, "w": 3, "h": 3},
		"sourceSize": {"w": 840, "h": 360}
	},  
	"Dust_0001":{
		"originalTrimmedName" : "Dust_0001",
		"frame" : {"x": 1, "y": 1730, "w": 333, "h": 85},
		"rotated": false, 
		"trimmed": true,
		"spriteSourceSize":	{ "x": 261, "y": 228, "w": 333, "h": 85},
		"sourceSize": {"w": 840, "h": 360}
	},  
	"Dust_0002":{
		"originalTrimmedName" : "Dust_0002",
		"frame" : {"x": 1, "y": 1632, "w": 349, "h": 96},
		"rotated": false, 
		"trimmed": true,
		"spriteSourceSize":	{ "x": 255, "y": 218, "w": 349, "h": 96},
		"sourceSize": {"w": 840, "h": 360}
	},  
	"Dust_0003":{
		"originalTrimmedName" : "Dust_0003",
		"frame" : {"x": 365, "y": 1628, "w": 361, "h": 102},
		"rotated": false, 
		"trimmed": true,
		"spriteSourceSize":	{ "x": 250, "y": 212, "w": 361, "h": 102},
		"sourceSize": {"w": 840, "h": 360}
	},  
	"Dust_0004":{
		"originalTrimmedName" : "Dust_0004",
		"frame" : {"x": 377, "y": 1519, "w": 368, "h": 107},
		"rotated": false, 
		"trimmed": true,
		"spriteSourceSize":	{ "x": 247, "y": 208, "w": 368, "h": 107},
		"sourceSize": {"w": 840, "h": 360}
	},  
	"Dust_0005":{
		"originalTrimmedName" : "Dust_0005",
		"frame" : {"x": 1, "y": 1428, "w": 374, "h": 110},
		"rotated": false, 
		"trimmed": true,
		"spriteSourceSize":	{ "x": 245, "y": 206, "w": 374, "h": 110},
		"sourceSize": {"w": 840, "h": 360}
	},  
	"Dust_0006":{
		"originalTrimmedName" : "Dust_0006",
		"frame" : {"x": 386, "y": 1403, "w": 380, "h": 114},
		"rotated": false, 
		"trimmed": true,
		"spriteSourceSize":	{ "x": 242, "y": 204, "w": 380, "h": 114},
		"sourceSize": {"w": 840, "h": 360}
	},  
	"Dust_0007":{
		"originalTrimmedName" : "Dust_0007",
		"frame" : {"x": 1, "y": 1310, "w": 383, "h": 116},
		"rotated": false, 
		"trimmed": true,
		"spriteSourceSize":	{ "x": 241, "y": 203, "w": 383, "h": 116},
		"sourceSize": {"w": 840, "h": 360}
	},  
	"Dust_0008":{
		"originalTrimmedName" : "Dust_0008",
		"frame" : {"x": 395, "y": 1283, "w": 387, "h": 118},
		"rotated": false, 
		"trimmed": true,
		"spriteSourceSize":	{ "x": 240, "y": 202, "w": 387, "h": 118},
		"sourceSize": {"w": 840, "h": 360}
	},  
	"Dust_0009":{
		"originalTrimmedName" : "Dust_0009",
		"frame" : {"x": 1, "y": 1187, "w": 392, "h": 121},
		"rotated": false, 
		"trimmed": true,
		"spriteSourceSize":	{ "x": 238, "y": 201, "w": 392, "h": 121},
		"sourceSize": {"w": 840, "h": 360}
	},  
	"Dust_0010":{
		"originalTrimmedName" : "Dust_0010",
		"frame" : {"x": 402, "y": 1158, "w": 395, "h": 123},
		"rotated": false, 
		"trimmed": true,
		"spriteSourceSize":	{ "x": 237, "y": 200, "w": 395, "h": 123},
		"sourceSize": {"w": 840, "h": 360}
	},  
	"Dust_0011":{
		"originalTrimmedName" : "Dust_0011",
		"frame" : {"x": 1, "y": 1060, "w": 399, "h": 125},
		"rotated": false, 
		"trimmed": true,
		"spriteSourceSize":	{ "x": 236, "y": 201, "w": 399, "h": 125},
		"sourceSize": {"w": 840, "h": 360}
	},  
	"Dust_0012":{
		"originalTrimmedName" : "Dust_0012",
		"frame" : {"x": 409, "y": 1029, "w": 402, "h": 127},
		"rotated": false, 
		"trimmed": true,
		"spriteSourceSize":	{ "x": 235, "y": 201, "w": 402, "h": 127},
		"sourceSize": {"w": 840, "h": 360}
	},  
	"Dust_0013":{
		"originalTrimmedName" : "Dust_0013",
		"frame" : {"x": 1, "y": 930, "w": 406, "h": 128},
		"rotated": false, 
		"trimmed": true,
		"spriteSourceSize":	{ "x": 233, "y": 202, "w": 406, "h": 128},
		"sourceSize": {"w": 840, "h": 360}
	},  
	"Dust_0014":{
		"originalTrimmedName" : "Dust_0014",
		"frame" : {"x": 417, "y": 897, "w": 410, "h": 130},
		"rotated": false, 
		"trimmed": true,
		"spriteSourceSize":	{ "x": 232, "y": 203, "w": 410, "h": 130},
		"sourceSize": {"w": 840, "h": 360}
	},  
	"Dust_0015":{
		"originalTrimmedName" : "Dust_0015",
		"frame" : {"x": 1, "y": 797, "w": 414, "h": 131},
		"rotated": false, 
		"trimmed": true,
		"spriteSourceSize":	{ "x": 231, "y": 205, "w": 414, "h": 131},
		"sourceSize": {"w": 840, "h": 360}
	},  
	"Dust_0016":{
		"originalTrimmedName" : "Dust_0016",
		"frame" : {"x": 422, "y": 764, "w": 416, "h": 131},
		"rotated": false, 
		"trimmed": true,
		"spriteSourceSize":	{ "x": 231, "y": 207, "w": 416, "h": 131},
		"sourceSize": {"w": 840, "h": 360}
	},  
	"Dust_0017":{
		"originalTrimmedName" : "Dust_0017",
		"frame" : {"x": 1, "y": 663, "w": 419, "h": 132},
		"rotated": false, 
		"trimmed": true,
		"spriteSourceSize":	{ "x": 230, "y": 210, "w": 419, "h": 132},
		"sourceSize": {"w": 840, "h": 360}
	},  
	"Dust_0018":{
		"originalTrimmedName" : "Dust_0018",
		"frame" : {"x": 426, "y": 631, "w": 421, "h": 131},
		"rotated": false, 
		"trimmed": true,
		"spriteSourceSize":	{ "x": 230, "y": 213, "w": 421, "h": 131},
		"sourceSize": {"w": 840, "h": 360}
	},  
	"Dust_0019":{
		"originalTrimmedName" : "Dust_0019",
		"frame" : {"x": 1, "y": 529, "w": 423, "h": 132},
		"rotated": false, 
		"trimmed": true,
		"spriteSourceSize":	{ "x": 230, "y": 216, "w": 423, "h": 132},
		"sourceSize": {"w": 840, "h": 360}
	},  
	"Dust_0020":{
		"originalTrimmedName" : "Dust_0020",
		"frame" : {"x": 1, "y": 394, "w": 425, "h": 133},
		"rotated": false, 
		"trimmed": true,
		"spriteSourceSize":	{ "x": 230, "y": 218, "w": 425, "h": 133},
		"sourceSize": {"w": 840, "h": 360}
	},  
	"Dust_0021":{
		"originalTrimmedName" : "Dust_0021",
		"frame" : {"x": 431, "y": 381, "w": 426, "h": 133},
		"rotated": false, 
		"trimmed": true,
		"spriteSourceSize":	{ "x": 230, "y": 221, "w": 426, "h": 133},
		"sourceSize": {"w": 840, "h": 360}
	},  
	"Dust_0022":{
		"originalTrimmedName" : "Dust_0022",
		"frame" : {"x": 1, "y": 260, "w": 428, "h": 132},
		"rotated": false, 
		"trimmed": true,
		"spriteSourceSize":	{ "x": 230, "y": 225, "w": 428, "h": 132},
		"sourceSize": {"w": 840, "h": 360}
	},  
	"Dust_0023":{
		"originalTrimmedName" : "Dust_0023",
		"frame" : {"x": 433, "y": 246, "w": 429, "h": 133},
		"rotated": false, 
		"trimmed": true,
		"spriteSourceSize":	{ "x": 230, "y": 227, "w": 429, "h": 133},
		"sourceSize": {"w": 840, "h": 360}
	},  
	"Dust_0024":{
		"originalTrimmedName" : "Dust_0024",
		"frame" : {"x": 1, "y": 128, "w": 430, "h": 130},
		"rotated": false, 
		"trimmed": true,
		"spriteSourceSize":	{ "x": 230, "y": 230, "w": 430, "h": 130},
		"sourceSize": {"w": 840, "h": 360}
	},  
	"Dust_0025":{
		"originalTrimmedName" : "Dust_0025",
		"frame" : {"x": 1, "y": 1, "w": 431, "h": 125},
		"rotated": false, 
		"trimmed": true,
		"spriteSourceSize":	{ "x": 230, "y": 235, "w": 431, "h": 125},
		"sourceSize": {"w": 840, "h": 360}
	},  
	"Dust_0026":{
		"originalTrimmedName" : "Dust_0026",
		"frame" : {"x": 434, "y": 1, "w": 431, "h": 122},
		"rotated": false, 
		"trimmed": true,
		"spriteSourceSize":	{ "x": 231, "y": 238, "w": 431, "h": 122},
		"sourceSize": {"w": 840, "h": 360}
	},  
	"Dust_0027":{
		"originalTrimmedName" : "Dust_0027",
		"frame" : {"x": 434, "y": 125, "w": 431, "h": 119},
		"rotated": false, 
		"trimmed": true,
		"spriteSourceSize":	{ "x": 231, "y": 241, "w": 431, "h": 119},
		"sourceSize": {"w": 840, "h": 360}
	},  
	"Dust_0028":{
		"originalTrimmedName" : "Dust_0028",
		"frame" : {"x": 428, "y": 516, "w": 424, "h": 113},
		"rotated": false, 
		"trimmed": true,
		"spriteSourceSize":	{ "x": 232, "y": 247, "w": 424, "h": 113},
		"sourceSize": {"w": 840, "h": 360}
	},  
	"Dust_0029":{
		"originalTrimmedName" : "Dust_0029",
		"frame" : {"x": 1, "y": 1540, "w": 362, "h": 90},
		"rotated": false, 
		"trimmed": true,
		"spriteSourceSize":	{ "x": 236, "y": 270, "w": 362, "h": 90},
		"sourceSize": {"w": 840, "h": 360}
	} }  
}