
{"frames": { 
	"spinner_0000":{
		"originalTrimmedName" : "spinner_0000",
		"frame" : {"x": 1, "y": 1, "w": 43, "h": 43},
		"rotated": false, 
		"trimmed": false,
		"spriteSourceSize":	{ "x": 0, "y": 0, "w": 43, "h": 43},
		"sourceSize": {"w": 43, "h": 43}
	},  
	"spinner_0001":{
		"originalTrimmedName" : "spinner_0001",
		"frame" : {"x": 1, "y": 46, "w": 43, "h": 43},
		"rotated": false, 
		"trimmed": false,
		"spriteSourceSize":	{ "x": 0, "y": 0, "w": 43, "h": 43},
		"sourceSize": {"w": 43, "h": 43}
	},  
	"spinner_0002":{
		"originalTrimmedName" : "spinner_0002",
		"frame" : {"x": 1, "y": 91, "w": 43, "h": 43},
		"rotated": false, 
		"trimmed": false,
		"spriteSourceSize":	{ "x": 0, "y": 0, "w": 43, "h": 43},
		"sourceSize": {"w": 43, "h": 43}
	},  
	"spinner_0003":{
		"originalTrimmedName" : "spinner_0003",
		"frame" : {"x": 1, "y": 136, "w": 43, "h": 43},
		"rotated": false, 
		"trimmed": false,
		"spriteSourceSize":	{ "x": 0, "y": 0, "w": 43, "h": 43},
		"sourceSize": {"w": 43, "h": 43}
	},  
	"spinner_0004":{
		"originalTrimmedName" : "spinner_0004",
		"frame" : {"x": 1, "y": 181, "w": 43, "h": 43},
		"rotated": false, 
		"trimmed": false,
		"spriteSourceSize":	{ "x": 0, "y": 0, "w": 43, "h": 43},
		"sourceSize": {"w": 43, "h": 43}
	},  
	"spinner_0005":{
		"originalTrimmedName" : "spinner_0005",
		"frame" : {"x": 46, "y": 1, "w": 43, "h": 43},
		"rotated": false, 
		"trimmed": false,
		"spriteSourceSize":	{ "x": 0, "y": 0, "w": 43, "h": 43},
		"sourceSize": {"w": 43, "h": 43}
	},  
	"spinner_0006":{
		"originalTrimmedName" : "spinner_0006",
		"frame" : {"x": 91, "y": 1, "w": 43, "h": 43},
		"rotated": false, 
		"trimmed": false,
		"spriteSourceSize":	{ "x": 0, "y": 0, "w": 43, "h": 43},
		"sourceSize": {"w": 43, "h": 43}
	},  
	"spinner_0007":{
		"originalTrimmedName" : "spinner_0007",
		"frame" : {"x": 136, "y": 1, "w": 43, "h": 43},
		"rotated": false, 
		"trimmed": false,
		"spriteSourceSize":	{ "x": 0, "y": 0, "w": 43, "h": 43},
		"sourceSize": {"w": 43, "h": 43}
	},  
	"spinner_0008":{
		"originalTrimmedName" : "spinner_0008",
		"frame" : {"x": 181, "y": 1, "w": 43, "h": 43},
		"rotated": false, 
		"trimmed": false,
		"spriteSourceSize":	{ "x": 0, "y": 0, "w": 43, "h": 43},
		"sourceSize": {"w": 43, "h": 43}
	},  
	"spinner_0009":{
		"originalTrimmedName" : "spinner_0009",
		"frame" : {"x": 46, "y": 46, "w": 43, "h": 43},
		"rotated": false, 
		"trimmed": false,
		"spriteSourceSize":	{ "x": 0, "y": 0, "w": 43, "h": 43},
		"sourceSize": {"w": 43, "h": 43}
	},  
	"spinner_0010":{
		"originalTrimmedName" : "spinner_0010",
		"frame" : {"x": 46, "y": 91, "w": 43, "h": 43},
		"rotated": false, 
		"trimmed": false,
		"spriteSourceSize":	{ "x": 0, "y": 0, "w": 43, "h": 43},
		"sourceSize": {"w": 43, "h": 43}
	},  
	"spinner_0011":{
		"originalTrimmedName" : "spinner_0011",
		"frame" : {"x": 46, "y": 136, "w": 43, "h": 43},
		"rotated": false, 
		"trimmed": false,
		"spriteSourceSize":	{ "x": 0, "y": 0, "w": 43, "h": 43},
		"sourceSize": {"w": 43, "h": 43}
	},  
	"spinner_0013":{
		"originalTrimmedName" : "spinner_0013",
		"frame" : {"x": 46, "y": 181, "w": 43, "h": 43},
		"rotated": false, 
		"trimmed": false,
		"spriteSourceSize":	{ "x": 0, "y": 0, "w": 43, "h": 43},
		"sourceSize": {"w": 43, "h": 43}
	},  
	"spinner_0014":{
		"originalTrimmedName" : "spinner_0014",
		"frame" : {"x": 91, "y": 46, "w": 43, "h": 43},
		"rotated": false, 
		"trimmed": false,
		"spriteSourceSize":	{ "x": 0, "y": 0, "w": 43, "h": 43},
		"sourceSize": {"w": 43, "h": 43}
	},  
	"spinner_0015":{
		"originalTrimmedName" : "spinner_0015",
		"frame" : {"x": 136, "y": 46, "w": 43, "h": 43},
		"rotated": false, 
		"trimmed": false,
		"spriteSourceSize":	{ "x": 0, "y": 0, "w": 43, "h": 43},
		"sourceSize": {"w": 43, "h": 43}
	},  
	"spinner_0016":{
		"originalTrimmedName" : "spinner_0016",
		"frame" : {"x": 181, "y": 46, "w": 43, "h": 43},
		"rotated": false, 
		"trimmed": false,
		"spriteSourceSize":	{ "x": 0, "y": 0, "w": 43, "h": 43},
		"sourceSize": {"w": 43, "h": 43}
	},  
	"spinner_0017":{
		"originalTrimmedName" : "spinner_0017",
		"frame" : {"x": 91, "y": 91, "w": 43, "h": 43},
		"rotated": false, 
		"trimmed": false,
		"spriteSourceSize":	{ "x": 0, "y": 0, "w": 43, "h": 43},
		"sourceSize": {"w": 43, "h": 43}
	},  
	"spinner_0018":{
		"originalTrimmedName" : "spinner_0018",
		"frame" : {"x": 91, "y": 136, "w": 43, "h": 43},
		"rotated": false, 
		"trimmed": false,
		"spriteSourceSize":	{ "x": 0, "y": 0, "w": 43, "h": 43},
		"sourceSize": {"w": 43, "h": 43}
	} }  
}