{ 
    
    "Larrow_Normal": [
        
        {
            "shape": [   {"x": 566, "y": 589 }  ,  {"x": 575, "y": 590 }  ,  {"x": 575, "y": 676 }  ,  {"x": 568, "y": 682 }  ,  {"x": 524, "y": 633 }  ]
        } ,
        {
            "shape": [   {"x": 575, "y": 590 }  ,  {"x": 566, "y": 589 }  ,  {"x": 572, "y": 586 }  ]
        }
    ]
    , 
    "LRarrow_Normal": [
        
        {
            "shape": [   {"x": 711, "y": 680 }  ,  {"x": 702, "y": 677 }  ,  {"x": 702, "y": 590 }  ,  {"x": 708, "y": 586 }  ,  {"x": 753, "y": 637 }  ]
        } ,
        {
            "shape": [   {"x": 702, "y": 677 }  ,  {"x": 711, "y": 680 }  ,  {"x": 704, "y": 682 }  ]
        }
    ]
}
