{
    "GET https://<irgs_host:port>/api/iwg/v1/game/<game_id>":
    {
        "Header":
        {
            "APIVersionID": "1" /*@type{Integer}*/ /*@desc{Set by Game Client, iRGS API Version}*/ /*@own{Game Client}*/,
            "RequestID": "00000000-0000-0000-0000-000000000000" /*@type{String}*/ /*@desc{Set by iRGS}*/ /*@own{iRGS}*/,
            "ResponseID": "00000000-0000-0000-0000-000000000000" /*@type{String}*/ /*@desc{Set by iRGS}*/ /*@own{iRGS}*/,
            "ResponseCode": "200" /*@type{Integer}*/ /*@desc{Set by iRGS, HTTP Status Code, Normally: 200 - OK}*/ /*@own{iRGS}*/,
            "ResponseMessage": "OK" /*@type{String}*/ /*@desc{Set by iRGS, HTTP Status Message, Normally: OK}*/ /*@own{iRGS}*/,
            "GameID": "00000000-0000-0000-0000-000000000000" /*@type{String}*/ /*@desc{Set by Game Client, URL defined Game Instance ID for current Operator ID}*/ /*@own{Game Client}*/,
            "GameLocaleID": "en-GB" /*@type{String}*/ /*@desc{Set by Game Client, the locale Id defined as 'xx-yy', where 'xx' is the ISO639-1 code and 'yy' is the ISO3166-1-alpha-2 country code}*/ /*@own{Game Client}*/,
            "OperatorID": "00000000-0000-0000-0000-000000000000" /*@type{String}*/ /*@desc{Set by Game Client, URL defined Operator ID}*/ /*@own{Game Client}*/,
            "UserToken": "00000000-0000-0000-0000-000000000000" /*@type{String}*/ /*@desc{Set by Game Client, URL defined PAM Authentication Token retrieved from PAM during user login, normally a GUID}*/ /*@own{Game Client}*/,
            "AuthToken": "00000000-0000-0000-0000-000000000000" /*@type{String}*/ /*@desc{Set by iRGS (reserved)}*/ /*@own{iRGS}*/,
            "GameMode": "IRGS_GAME_MODE_ENUM" /*@type{IRGS_GAME_MODE_ENUM}*/ /*@desc{Set by iGC and defines game mode: 0-Normal, 1-Freeplay, 2-SandBox}*/ /*@own{iRGS}*/
        },
        "Device":
        {
            "DeviceClass": "iOS" /*@type{String}*/ /*@desc{Set by Game Client and iRGS Client Detection Framework, the device Class (iOS, Android, PC, etc.)}*/ /*@own{Game Client}*/,
            "DeviceModel": "iPhone6" /*@type{String}*/ /*@desc{Set by Game Client and iRGS Client Detection Framework, device model if it can be detected}*/ /*@own{Game Client}*/,
            "DeviceSDKVersion": "9" /*@type{String}*/ /*@desc{Set by Game Client and iRGS Client Detection Framework, device OS version for iOS or SDK version for Android}*/ /*@own{Game Client}*/,
            "DeviceMobileBrowserName": "Safari" /*@type{String}*/ /*@desc{Set by Game Client and iRGS Client Detection Framework, mobile browser name (eg. Chrome, Safari) or null}*/ /*@own{Game Client}*/,
            "DeviceScreenWidth": "0" /*@type{Integer}*/ /*@desc{Set by Game Client and iRGS Client Detection Framework, device Screen Width in pixels}*/ /*@own{Game Client}*/,
            "DeviceScreenHeight": "0" /*@type{Integer}*/ /*@desc{Set by Game Client and iRGS Client Detection Framework, device Screen Height in pixels}*/ /*@own{Game Client}*/,
            "DevicePixelRatio": "1.5" /*@type{Float}*/ /*@desc{Set by Game Client and iRGS Client Detection Framework, device pixel ratio}*/ /*@own{Game Client}*/,
            "CData": null /*@type{Object}*/ /*@desc{Set by Game Client and iRGS Client Detection Framework, game-specific additional Device detection data}*/ /*@own{Game Client}*/
        },
        "Player":
        {
            "Alias": "" /*@type{String}*/ /*@desc{Set by iRGS, the screen name of the player as retrieved by PAM}*/ /*@own{iRGS}*/,
            "CurrentBalance": "0" /*@type{Integer}*/ /*@desc{Set by iRGS, the balance of the player in cents as retrieved by Wallet}*/ /*@own{iRGS}*/,
            "CData": null /*@type{Object}*/ /*@desc{Set by iRGS, PAM and game specific additional Player data}*/ /*@own{iRGS}*/
        },
        "Game":
        {
            "Configuration":
            {
                "LocalizedCurrencySymbol": "" /*@type{String}*/ /*@desc{Set by iRGS, the Unicode symbol used for player's currency}*/ /*@own{iRGS}*/,
                "CurrencySymbolPosition": "0" /*@type{Integer}*/ /*@desc{Set by iRGS, 0-Left, 1-Right}*/ /*@own{iRGS}*/,
                "LocalizedDecimalSeparator": "" /*@type{String}*/ /*@desc{Set by iRGS, either dot or comma}*/ /*@own{iRGS}*/,
                "LocalizedThousandsSeparator": "" /*@type{String}*/ /*@desc{Set by iRGS, either comma or dot }*/ /*@own{iRGS}*/,
                "LobbyURL": "" /*@type{String}*/ /*@desc{Set by iRGS}*/ /*@own{iRGS}*/,
                "CData": null /*@type{Object}*/ /*@desc{Set by iRGS, game-specific additional Game configuration data}*/ /*@own{iRGS}*/
            },
            "Symbols":
            [

                {
                    "SymbolID": "00000000-0000-0000-0000-000000000000" /*@type{String}*/ /*@desc{Set by iRGS}*/ /*@own{iRGS}*/,
                    "SymbolType": "IRGS_IW_SYMBOL_TYPE_ENUM" /*@type{IRGS_IW_SYMBOL_TYPE_ENUM}*/ /*@desc{Set by iRGS}*/ /*@own{iRGS}*/,
                    "CData": null /*@type{Object}*/ /*@desc{Set by iRGS, game-specific additional Symbol configuration data}*/ /*@own{iRGS}*/
                }
            ],
            "CData": null /*@type{Object}*/ /*@desc{Set by iRGS, additional Game Data}*/
        }
    },
    "POST https://<irgs_host:port>/api/iwg/v1/game/<game_id>/ticket":
    {
        "Header":
        {
            "APIVersionID": "1" /*@type{Integer}*/ /*@desc{Set by Game Client, iRGS API Version}*/ /*@own{Game Client}*/,
            "RequestID": "00000000-0000-0000-0000-000000000000" /*@type{String}*/ /*@desc{Set by iRGS}*/ /*@own{iRGS}*/,
            "ResponseID": "00000000-0000-0000-0000-000000000000" /*@type{String}*/ /*@desc{Set by iRGS}*/ /*@own{iRGS}*/,
            "ResponseCode": "200" /*@type{Integer}*/ /*@desc{Set by iRGS, HTTP Status Code, Normally: 200 - OK}*/ /*@own{iRGS}*/,
            "ResponseMessage": "OK" /*@type{String}*/ /*@desc{Set by iRGS, HTTP Status Message, Normally: OK}*/ /*@own{iRGS}*/,
            "GameID": "00000000-0000-0000-0000-000000000000" /*@type{String}*/ /*@desc{Set by Game Client, URL defined Game Instance ID for current Operator ID}*/ /*@own{Game Client}*/,
            "GameLocaleID": "en-GB" /*@type{String}*/ /*@desc{Set by Game Client, the locale Id defined as 'xx-yy', where 'xx' is the ISO639-1 code and 'yy' is the ISO3166-1-alpha-2 country code}*/ /*@own{Game Client}*/,
            "OperatorID": "00000000-0000-0000-0000-000000000000" /*@type{String}*/ /*@desc{Set by Game Client, URL defined Operator ID}*/ /*@own{Game Client}*/,
            "UserToken": "00000000-0000-0000-0000-000000000000" /*@type{String}*/ /*@desc{Set by Game Client, URL defined PAM Authentication Token retrieved from PAM during user login, normally a GUID}*/ /*@own{Game Client}*/,
            "AuthToken": "00000000-0000-0000-0000-000000000000" /*@type{String}*/ /*@desc{Set by iRGS (reserved)}*/ /*@own{iRGS}*/,
            "GameMode": "IRGS_GAME_MODE_ENUM" /*@type{IRGS_GAME_MODE_ENUM}*/ /*@desc{Set by iGC and defines game mode: 0-Normal, 1-Freeplay, 2-SandBox}*/ /*@own{iRGS}*/
        },
        "Wager":
        {
            "WagerID": "00000000-0000-0000-0000-000000000000" /*@type{String}*/ /*@desc{Set by iRGS upon receiving a Wager from the Game Client}*/ /*@own{iRGS}*/,
            "SymbolID":
            [
                "00000000-0000-0000-0000-000000000000"
            ],
            "PayTableID": "00000000-0000-0000-0000-000000000000",
            "Amount": "0" /*@type{Integer}*/ /*@desc{Set by Game Client, this is the Bet Amount selected by Player}*/ /*@own{Game Client}*/,
            "BetMultiplier": "0" /*@type{Integer}*/ /*@desc{Set by Game Client, this is the Bet Multiplier selected by Player}*/ /*@own{Game Client}*/,
            "CData": null /*@type{Object}*/ /*@desc{Set by iRGS, game-specific additional Wager data}*/ /*@own{Game Client}*/
        },
        "Ticket":
        {
            "TicketID": "00000000-0000-0000-0000-000000000000" /*@type{String}*/ /*@desc{Set by iRGS, the Ticket ID}*/ /*@own{iRGS}*/,
            "InitialBalance": "0" /*@type{Integer}*/ /*@desc{Set by iRGS, balance before debiting Player's account}*/ /*@own{iRGS}*/,
            "FinalBalance": "0" /*@type{Integer}*/ /*@desc{Set by iRGS, balance after debiting Player's account}*/ /*@own{iRGS}*/,
            "Actions":
            [

                {
                    "ActionID": "00000000-0000-0000-0000-000000000000" /*@type{String}*/ /*@desc{Set by iRGS, the Animation Action ID}*/ /*@own{iRGS}*/,
                    "Type": "IRGS_IW_ACTION_TYPE_ENUM" /*@type{IRGS_IW_ACTION_TYPE_ENUM}*/ /*@desc{Set by iRGS, it defines the type of the Action (Win / Lose / Rewards / Bonuses / Free Rounds / etc.) 0-Error, 1-Lose, 2-Win Amount, 3-Win Free Round, 4-Free Round Lose, 5-Free Round Win Amount, 6-Free Round Win Free Round, 7-Win Bonus , 8-Bonus Win Amount, 9-Bonus Lose}*/ /*@own{iRGS}*/,
                    "Message": "" /*@type{String}*/ /*@desc{Set by iRGS, additional game-specific string message to display to the Player}*/ /*@own{iRGS}*/,
                    "WinAmount": "0" /*@type{Integer}*/ /*@desc{Set by iRGS, this is the Prize won by this single Action}*/ /*@own{iRGS}*/,
                    "CData": null /*@type{Object}*/ /*@desc{Set by iRGS, additional game-specific Action data}*/ /*@own{iRGS}*/,
                    "SymbolDistribution":
                    [

                        {
                            "SymbolID": "00000000-0000-0000-0000-000000000000" /*@type{String}*/ /*@desc{Set by iRGS, this is the Symbol ID to arbitrary display. it depends on Game Mechanics}*/ /*@own{iRGS}*/,
                            "SymbolState": "IRGS_IW_SYMBOL_STATE_ENUM" /*@type{IRGS_IW_SYMBOL_STATE_ENUM}*/ /*@desc{Set by iRGS, this is the State of the Symbol. 0-Normal, 1-Win, 2-Lose}*/ /*@own{iRGS}*/,
                            "Revealed": "0" /*@type{Integer}*/ /*@desc{Set by iRGS, 0-Concealed, 1-Revealed (Scratched)}*/ /*@own{iRGS}*/,
                            "CData": null /*@type{Object}*/ /*@desc{Set by iRGS, additional game-specific and action-specific Symbol Distribution item data}*/ /*@own{iRGS}*/
                        }
                    ]
                }
            ]
        }
    },
    "PUT https://<irgs_host:port>/api/iwg/v1/ticket/<ticket_id>":
    {
        "Header":
        {
            "APIVersionID": "1" /*@type{Integer}*/ /*@desc{Set by Game Client, iRGS API Version}*/ /*@own{Game Client}*/,
            "RequestID": "00000000-0000-0000-0000-000000000000" /*@type{String}*/ /*@desc{Set by iRGS}*/ /*@own{iRGS}*/,
            "ResponseID": "00000000-0000-0000-0000-000000000000" /*@type{String}*/ /*@desc{Set by iRGS}*/ /*@own{iRGS}*/,
            "ResponseCode": "200" /*@type{Integer}*/ /*@desc{Set by iRGS, HTTP Status Code, Normally: 200 - OK}*/ /*@own{iRGS}*/,
            "ResponseMessage": "OK" /*@type{String}*/ /*@desc{Set by iRGS, HTTP Status Message, Normally: OK}*/ /*@own{iRGS}*/,
            "GameID": "00000000-0000-0000-0000-000000000000" /*@type{String}*/ /*@desc{Set by Game Client, URL defined Game Instance ID for current Operator ID}*/ /*@own{Game Client}*/,
            "GameLocaleID": "en-GB" /*@type{String}*/ /*@desc{Set by Game Client, the locale Id defined as 'xx-yy', where 'xx' is the ISO639-1 code and 'yy' is the ISO3166-1-alpha-2 country code}*/ /*@own{Game Client}*/,
            "OperatorID": "00000000-0000-0000-0000-000000000000" /*@type{String}*/ /*@desc{Set by Game Client, URL defined Operator ID}*/ /*@own{Game Client}*/,
            "UserToken": "00000000-0000-0000-0000-000000000000" /*@type{String}*/ /*@desc{Set by Game Client, URL defined PAM Authentication Token retrieved from PAM during user login, normally a GUID}*/ /*@own{Game Client}*/,
            "AuthToken": "00000000-0000-0000-0000-000000000000" /*@type{String}*/ /*@desc{Set by iRGS (reserved)}*/ /*@own{iRGS}*/,
            "GameMode": "IRGS_GAME_MODE_ENUM" /*@type{IRGS_GAME_MODE_ENUM}*/ /*@desc{Set by iGC and defines game mode: 0-Normal, 1-Freeplay, 2-SandBox}*/ /*@own{iRGS}*/
        },
        "Ticket":
        {
            "TicketID": "00000000-0000-0000-0000-000000000000" /*@type{String}*/ /*@desc{Set by Game Client, this is the Ticket ID received from iRGS}*/ /*@own{Game Client}*/,
            "State": "IRGS_TICKET_STATE_ENUM" /*@type{IRGS_TICKET_STATE_ENUM}*/ /*@desc{Set by Game Client, 0-Closed: ticket is fully revealed to the player and the round is complete, 1-Pending: some parts of the ticket are revealed to the player but the round is not complete}*/ /*@own{Game Client}*/,
            "ActionID": "00000000-0000-0000-0000-000000000000" /*@type{String}*/ /*@desc{Set by Game Client, required both when closing the ticket (last action id) or saving its state (current action id).}*/ /*@own{Game Client}*/,
            "SymbolDistribution":
            [

                {
                    "SymbolID": "00000000-0000-0000-0000-000000000000" /*@type{String}*/ /*@desc{Set by Game Client, required when Ticket.State = 1}*/ /*@own{Game Client}*/,
                    "SymbolState": "IRGS_IW_SYMBOL_STATE_ENUM" /*@type{IRGS_IW_SYMBOL_STATE_ENUM}*/ /*@desc{Set by Game Client, required when Ticket.State = 1}*/ /*@own{Game Client}*/,
                    "Revealed": "0" /*@type{Integer}*/ /*@desc{Set by Game Client, 0-Concealed, 1-Revealed (Scratched)}*/ /*@own{Game Client}*/,
                    "CData": null /*@type{Object}*/ /*@desc{Set by iRGS, additional game-specific and action-specific Symbol Distribution item data}*/ /*@own{Game Client}*/
                }
            ]
        }
    }
}
