{
	"Header":
	{
		"APIVersionID": "1" /*@type{Integer}*/ /*@desc{Set by Game Client, iRGS API Version}*/ /*@own{Game Client}*/,
		"RequestID": "02268EDC-D799-44E5-90AF-0C76FBB9F860" /*@type{String}*/ /*@desc{Set by iRGS}*/ /*@own{iRGS}*/,
		"ResponseID": "4AB1638C-72DC-476F-BB3D-28CC35ED9424" /*@type{String}*/ /*@desc{Set by iRGS}*/ /*@own{iRGS}*/,
		"ResponseCode": "200" /*@type{Integer}*/ /*@desc{Set by iRGS, HTTP Status Code, Normally: 200 - OK}*/ /*@own{iRGS}*/,
		"ResponseMessage": "OK" /*@type{String}*/ /*@desc{Set by iRGS, HTTP Status Message, Normally: OK}*/ /*@own{iRGS}*/,
		"GameID": "9834DF9E-A5E0-4A2D-88DC-41E372B6988A" /*@type{String}*/ /*@desc{Set by Game Client, URL defined Game Instance ID for current Operator ID}*/ /*@own{Game Client}*/,
		"GameLocaleID": "en-GB" /*@type{String}*/ /*@desc{Set by Game Client, the locale Id defined as 'xx-yy', where 'xx' is the ISO639-1 code and 'yy' is the ISO3166-1-alpha-2 country code}*/ /*@own{Game Client}*/,
		"OperatorID": "8AB77564-3428-4A19-8570-5D5F4C1BFFB7" /*@type{String}*/ /*@desc{Set by Game Client, URL defined Operator ID}*/ /*@own{Game Client}*/,
		"UserToken": "10000000-0000-0000-0000-000000000000" /*@type{String}*/ /*@desc{Set by Game Client, URL defined PAM Authentication Token retrieved from PAM during user login, normally a GUID}*/ /*@own{Game Client}*/,
		"AuthToken": "20000000-0000-0000-0000-000000000000" /*@type{String}*/ /*@desc{Set by iRGS (reserved)}*/ /*@own{iRGS}*/,
		"GameMode": "2" /*@type{IRGS_GAME_MODE_ENUM}*/ /*@desc{Set by iGC and defines game mode: 0-Normal, 1-Freeplay, 2-SandBox}*/ /*@own{iRGS}*/
	},
	"Wager":
	{
		"WagerID": "D13FEAEF-F016-4E48-9F69-A44683259F13" /*@type{String}*/ /*@desc{Set by iRGS upon receiving a Wager from the Game Client}*/ /*@own{iRGS}*/,
		"SymbolID":
		[
			"00000001-0000-0000-0000-000000000001"
		],
		"PayTableID": "95FF1C13-164E-404C-B1B2-ED3E7B2FB91B" /*@type{String}*/ /*@desc{Set by Game Client, this is the Pay Table ID selected by the Player}*/ /*@own{iRGS}*/,
		"Amount": "3" /*@type{Integer}*/ /*@desc{Set by Game Client, this is the Bet Amount selected by Player}*/ /*@own{Game Client}*/,
		"BetMultiplier": "0" /*@type{Integer}*/ /*@desc{Set by Game Client, this is the Bet Multiplier selected by Player}*/ /*@own{Game Client}*/,
		"CData": null /*@type{Object}*/ /*@desc{Set by iRGS, game-specific additional Wager data}*/ /*@own{Game Client}*/
	},
	"Ticket":
	{
		"TicketID": "7856831E-559A-4B7D-8F55-589A8837808A" /*@type{String}*/ /*@desc{Set by iRGS, the Ticket ID}*/ /*@own{iRGS}*/,
		"InitialBalance": "101" /*@type{Integer}*/ /*@desc{Set by iRGS, balance before debiting Player's account}*/ /*@own{iRGS}*/,
		"FinalBalance": "98" /*@type{Integer}*/ /*@desc{Set by iRGS, balance after debiting Player's account}*/ /*@own{iRGS}*/,
		"Actions":
		[
			{
				"ActionID": "8BCB6B1A-B7EE-4B57-99F6-8A301BA761C1" /*@type{String}*/ /*@desc{Set by iRGS, the Animation Action ID}*/ /*@own{iRGS}*/,
				"Type": "1" /*@type{IRGS_IW_ACTION_TYPE_ENUM}*/ /*@desc{Set by iRGS, it defines the type of the Action (Win / Lose / Rewards / Bonuses / Free Rounds / etc.) 0-Error, 1-Lose, 2-Win Amount, 3-Win Free Round, 4-Free Round Lose, 5-Free Round Win Amount, 6-Free Round Win Free Round, 7-Win Bonus , 8-Bonus Win Amount, 9-Bonus Lose}*/ /*@own{iRGS}*/,
				"Message": "" /*@type{String}*/ /*@desc{Set by iRGS, additional game-specific string message to display to the Player}*/ /*@own{iRGS}*/,
				"WinAmount": "0" /*@type{Integer}*/ /*@desc{Set by iRGS, this is the Prize won by this single Action}*/ /*@own{iRGS}*/,
				"CData": null /*@type{Object}*/ /*@desc{Set by iRGS, additional game-specific Action data}*/ /*@own{iRGS}*/,
				"SymbolDistribution":
				[

					{
						"SymbolID": "00000001-0000-0000-0000-000000000001" /*@type{String}*/ /*@desc{Set by iRGS, this is the Symbol ID to arbitrary display. it depends on Game Mechanics}*/ /*@own{iRGS}*/,
						"SymbolState": "1" /*@type{IRGS_IW_SYMBOL_STATE_ENUM}*/ /*@desc{Set by iRGS, this is the State of the Symbol. 0-Normal, 1-Win, 2-Lose}*/ /*@own{iRGS}*/,
						"Revealed": "0" /*@type{Integer}*/ /*@desc{Set by iRGS, 0-Concealed, 1-Revealed (Scratched)}*/ /*@own{iRGS}*/,
						"CData": null /*@type{Object}*/ /*@desc{Set by iRGS, additional game-specific and action-specific Symbol Distribution item data}*/ /*@own{iRGS}*/
					},
					{
						"SymbolID": "00000001-0000-0000-0000-000000000002" /*@type{String}*/ /*@desc{Set by iRGS, this is the Symbol ID to arbitrary display. it depends on Game Mechanics}*/ /*@own{iRGS}*/,
						"SymbolState": "0" /*@type{IRGS_IW_SYMBOL_STATE_ENUM}*/ /*@desc{Set by iRGS, this is the State of the Symbol. 0-Normal, 1-Win, 2-Lose}*/ /*@own{iRGS}*/,
						"Revealed": "0" /*@type{Integer}*/ /*@desc{Set by iRGS, 0-Concealed, 1-Revealed (Scratched)}*/ /*@own{iRGS}*/,
						"CData": null /*@type{Object}*/ /*@desc{Set by iRGS, additional game-specific and action-specific Symbol Distribution item data}*/ /*@own{iRGS}*/
					},
					{
						"SymbolID": "00000001-0000-0000-0000-000000000003" /*@type{String}*/ /*@desc{Set by iRGS, this is the Symbol ID to arbitrary display. it depends on Game Mechanics}*/ /*@own{iRGS}*/,
						"SymbolState": "0" /*@type{IRGS_IW_SYMBOL_STATE_ENUM}*/ /*@desc{Set by iRGS, this is the State of the Symbol. 0-Normal, 1-Win, 2-Lose}*/ /*@own{iRGS}*/,
						"Revealed": "0" /*@type{Integer}*/ /*@desc{Set by iRGS, 0-Concealed, 1-Revealed (Scratched)}*/ /*@own{iRGS}*/,
						"CData": null /*@type{Object}*/ /*@desc{Set by iRGS, additional game-specific and action-specific Symbol Distribution item data}*/ /*@own{iRGS}*/
					},
					{
						"SymbolID": "00000001-0000-0000-0000-000000000004" /*@type{String}*/ /*@desc{Set by iRGS, this is the Symbol ID to arbitrary display. it depends on Game Mechanics}*/ /*@own{iRGS}*/,
						"SymbolState": "0" /*@type{IRGS_IW_SYMBOL_STATE_ENUM}*/ /*@desc{Set by iRGS, this is the State of the Symbol. 0-Normal, 1-Win, 2-Lose}*/ /*@own{iRGS}*/,
						"Revealed": "0" /*@type{Integer}*/ /*@desc{Set by iRGS, 0-Concealed, 1-Revealed (Scratched)}*/ /*@own{iRGS}*/,
						"CData": null /*@type{Object}*/ /*@desc{Set by iRGS, additional game-specific and action-specific Symbol Distribution item data}*/ /*@own{iRGS}*/
					},
					{
						"SymbolID": "00000001-0000-0000-0000-000000000005" /*@type{String}*/ /*@desc{Set by iRGS, this is the Symbol ID to arbitrary display. it depends on Game Mechanics}*/ /*@own{iRGS}*/,
						"SymbolState": "0" /*@type{IRGS_IW_SYMBOL_STATE_ENUM}*/ /*@desc{Set by iRGS, this is the State of the Symbol. 0-Normal, 1-Win, 2-Lose}*/ /*@own{iRGS}*/,
						"Revealed": "0" /*@type{Integer}*/ /*@desc{Set by iRGS, 0-Concealed, 1-Revealed (Scratched)}*/ /*@own{iRGS}*/,
						"CData": null /*@type{Object}*/ /*@desc{Set by iRGS, additional game-specific and action-specific Symbol Distribution item data}*/ /*@own{iRGS}*/
					},
					{
						"SymbolID": "00000001-0000-0000-0000-000000000006" /*@type{String}*/ /*@desc{Set by iRGS, this is the Symbol ID to arbitrary display. it depends on Game Mechanics}*/ /*@own{iRGS}*/,
						"SymbolState": "0" /*@type{IRGS_IW_SYMBOL_STATE_ENUM}*/ /*@desc{Set by iRGS, this is the State of the Symbol. 0-Normal, 1-Win, 2-Lose}*/ /*@own{iRGS}*/,
						"Revealed": "0" /*@type{Integer}*/ /*@desc{Set by iRGS, 0-Concealed, 1-Revealed (Scratched)}*/ /*@own{iRGS}*/,
						"CData": null /*@type{Object}*/ /*@desc{Set by iRGS, additional game-specific and action-specific Symbol Distribution item data}*/ /*@own{iRGS}*/
					},
					{
						"SymbolID": "00000001-0000-0000-0000-000000000007" /*@type{String}*/ /*@desc{Set by iRGS, this is the Symbol ID to arbitrary display. it depends on Game Mechanics}*/ /*@own{iRGS}*/,
						"SymbolState": "0" /*@type{IRGS_IW_SYMBOL_STATE_ENUM}*/ /*@desc{Set by iRGS, this is the State of the Symbol. 0-Normal, 1-Win, 2-Lose}*/ /*@own{iRGS}*/,
						"Revealed": "0" /*@type{Integer}*/ /*@desc{Set by iRGS, 0-Concealed, 1-Revealed (Scratched)}*/ /*@own{iRGS}*/,
						"CData": null /*@type{Object}*/ /*@desc{Set by iRGS, additional game-specific and action-specific Symbol Distribution item data}*/ /*@own{iRGS}*/
					},
					{
						"SymbolID": "00000001-0000-0000-0000-000000000008" /*@type{String}*/ /*@desc{Set by iRGS, this is the Symbol ID to arbitrary display. it depends on Game Mechanics}*/ /*@own{iRGS}*/,
						"SymbolState": "0" /*@type{IRGS_IW_SYMBOL_STATE_ENUM}*/ /*@desc{Set by iRGS, this is the State of the Symbol. 0-Normal, 1-Win, 2-Lose}*/ /*@own{iRGS}*/,
						"Revealed": "0" /*@type{Integer}*/ /*@desc{Set by iRGS, 0-Concealed, 1-Revealed (Scratched)}*/ /*@own{iRGS}*/,
						"CData": null /*@type{Object}*/ /*@desc{Set by iRGS, additional game-specific and action-specific Symbol Distribution item data}*/ /*@own{iRGS}*/
					},
					{
						"SymbolID": "00000001-0000-0000-0000-000000000002" /*@type{String}*/ /*@desc{Set by iRGS, this is the Symbol ID to arbitrary display. it depends on Game Mechanics}*/ /*@own{iRGS}*/,
						"SymbolState": "0" /*@type{IRGS_IW_SYMBOL_STATE_ENUM}*/ /*@desc{Set by iRGS, this is the State of the Symbol. 0-Normal, 1-Win, 2-Lose}*/ /*@own{iRGS}*/,
						"Revealed": "0" /*@type{Integer}*/ /*@desc{Set by iRGS, 0-Concealed, 1-Revealed (Scratched)}*/ /*@own{iRGS}*/,
						"CData": null /*@type{Object}*/ /*@desc{Set by iRGS, additional game-specific and action-specific Symbol Distribution item data}*/ /*@own{iRGS}*/
					},
					{
						"SymbolID": "00000001-0000-0000-0000-000000000003" /*@type{String}*/ /*@desc{Set by iRGS, this is the Symbol ID to arbitrary display. it depends on Game Mechanics}*/ /*@own{iRGS}*/,
						"SymbolState": "0" /*@type{IRGS_IW_SYMBOL_STATE_ENUM}*/ /*@desc{Set by iRGS, this is the State of the Symbol. 0-Normal, 1-Win, 2-Lose}*/ /*@own{iRGS}*/,
						"Revealed": "0" /*@type{Integer}*/ /*@desc{Set by iRGS, 0-Concealed, 1-Revealed (Scratched)}*/ /*@own{iRGS}*/,
						"CData": null /*@type{Object}*/ /*@desc{Set by iRGS, additional game-specific and action-specific Symbol Distribution item data}*/ /*@own{iRGS}*/
					},
					{
						"SymbolID": "00000001-0000-0000-0000-000000000004" /*@type{String}*/ /*@desc{Set by iRGS, this is the Symbol ID to arbitrary display. it depends on Game Mechanics}*/ /*@own{iRGS}*/,
						"SymbolState": "0" /*@type{IRGS_IW_SYMBOL_STATE_ENUM}*/ /*@desc{Set by iRGS, this is the State of the Symbol. 0-Normal, 1-Win, 2-Lose}*/ /*@own{iRGS}*/,
						"Revealed": "0" /*@type{Integer}*/ /*@desc{Set by iRGS, 0-Concealed, 1-Revealed (Scratched)}*/ /*@own{iRGS}*/,
						"CData": null /*@type{Object}*/ /*@desc{Set by iRGS, additional game-specific and action-specific Symbol Distribution item data}*/ /*@own{iRGS}*/
					},
					{
						"SymbolID": "00000001-0000-0000-0000-000000000005" /*@type{String}*/ /*@desc{Set by iRGS, this is the Symbol ID to arbitrary display. it depends on Game Mechanics}*/ /*@own{iRGS}*/,
						"SymbolState": "0" /*@type{IRGS_IW_SYMBOL_STATE_ENUM}*/ /*@desc{Set by iRGS, this is the State of the Symbol. 0-Normal, 1-Win, 2-Lose}*/ /*@own{iRGS}*/,
						"Revealed": "0" /*@type{Integer}*/ /*@desc{Set by iRGS, 0-Concealed, 1-Revealed (Scratched)}*/ /*@own{iRGS}*/,
						"CData": null /*@type{Object}*/ /*@desc{Set by iRGS, additional game-specific and action-specific Symbol Distribution item data}*/ /*@own{iRGS}*/
					},
					{
						"SymbolID": "00000001-0000-0000-0000-000000000006" /*@type{String}*/ /*@desc{Set by iRGS, this is the Symbol ID to arbitrary display. it depends on Game Mechanics}*/ /*@own{iRGS}*/,
						"SymbolState": "0" /*@type{IRGS_IW_SYMBOL_STATE_ENUM}*/ /*@desc{Set by iRGS, this is the State of the Symbol. 0-Normal, 1-Win, 2-Lose}*/ /*@own{iRGS}*/,
						"Revealed": "0" /*@type{Integer}*/ /*@desc{Set by iRGS, 0-Concealed, 1-Revealed (Scratched)}*/ /*@own{iRGS}*/,
						"CData": null /*@type{Object}*/ /*@desc{Set by iRGS, additional game-specific and action-specific Symbol Distribution item data}*/ /*@own{iRGS}*/
					},
					{
						"SymbolID": "00000001-0000-0000-0000-000000000007" /*@type{String}*/ /*@desc{Set by iRGS, this is the Symbol ID to arbitrary display. it depends on Game Mechanics}*/ /*@own{iRGS}*/,
						"SymbolState": "0" /*@type{IRGS_IW_SYMBOL_STATE_ENUM}*/ /*@desc{Set by iRGS, this is the State of the Symbol. 0-Normal, 1-Win, 2-Lose}*/ /*@own{iRGS}*/,
						"Revealed": "0" /*@type{Integer}*/ /*@desc{Set by iRGS, 0-Concealed, 1-Revealed (Scratched)}*/ /*@own{iRGS}*/,
						"CData": null /*@type{Object}*/ /*@desc{Set by iRGS, additional game-specific and action-specific Symbol Distribution item data}*/ /*@own{iRGS}*/
					},
					{
						"SymbolID": "00000001-0000-0000-0000-000000000008" /*@type{String}*/ /*@desc{Set by iRGS, this is the Symbol ID to arbitrary display. it depends on Game Mechanics}*/ /*@own{iRGS}*/,
						"SymbolState": "0" /*@type{IRGS_IW_SYMBOL_STATE_ENUM}*/ /*@desc{Set by iRGS, this is the State of the Symbol. 0-Normal, 1-Win, 2-Lose}*/ /*@own{iRGS}*/,
						"Revealed": "0" /*@type{Integer}*/ /*@desc{Set by iRGS, 0-Concealed, 1-Revealed (Scratched)}*/ /*@own{iRGS}*/,
						"CData": null /*@type{Object}*/ /*@desc{Set by iRGS, additional game-specific and action-specific Symbol Distribution item data}*/ /*@own{iRGS}*/
					},
					{
						"SymbolID": "00000001-0000-0000-0000-000000000002" /*@type{String}*/ /*@desc{Set by iRGS, this is the Symbol ID to arbitrary display. it depends on Game Mechanics}*/ /*@own{iRGS}*/,
						"SymbolState": "0" /*@type{IRGS_IW_SYMBOL_STATE_ENUM}*/ /*@desc{Set by iRGS, this is the State of the Symbol. 0-Normal, 1-Win, 2-Lose}*/ /*@own{iRGS}*/,
						"Revealed": "0" /*@type{Integer}*/ /*@desc{Set by iRGS, 0-Concealed, 1-Revealed (Scratched)}*/ /*@own{iRGS}*/,
						"CData": null /*@type{Object}*/ /*@desc{Set by iRGS, additional game-specific and action-specific Symbol Distribution item data}*/ /*@own{iRGS}*/
					},
					{
						"SymbolID": "00000001-0000-0000-0000-000000000003" /*@type{String}*/ /*@desc{Set by iRGS, this is the Symbol ID to arbitrary display. it depends on Game Mechanics}*/ /*@own{iRGS}*/,
						"SymbolState": "0" /*@type{IRGS_IW_SYMBOL_STATE_ENUM}*/ /*@desc{Set by iRGS, this is the State of the Symbol. 0-Normal, 1-Win, 2-Lose}*/ /*@own{iRGS}*/,
						"Revealed": "0" /*@type{Integer}*/ /*@desc{Set by iRGS, 0-Concealed, 1-Revealed (Scratched)}*/ /*@own{iRGS}*/,
						"CData": null /*@type{Object}*/ /*@desc{Set by iRGS, additional game-specific and action-specific Symbol Distribution item data}*/ /*@own{iRGS}*/
					},
					{
						"SymbolID": "00000001-0000-0000-0000-000000000008" /*@type{String}*/ /*@desc{Set by iRGS, this is the Symbol ID to arbitrary display. it depends on Game Mechanics}*/ /*@own{iRGS}*/,
						"SymbolState": "0" /*@type{IRGS_IW_SYMBOL_STATE_ENUM}*/ /*@desc{Set by iRGS, this is the State of the Symbol. 0-Normal, 1-Win, 2-Lose}*/ /*@own{iRGS}*/,
						"Revealed": "0" /*@type{Integer}*/ /*@desc{Set by iRGS, 0-Concealed, 1-Revealed (Scratched)}*/ /*@own{iRGS}*/,
						"CData": null /*@type{Object}*/ /*@desc{Set by iRGS, additional game-specific and action-specific Symbol Distribution item data}*/ /*@own{iRGS}*/
					},
					{
						"SymbolID": "00000001-0000-0000-0000-000000000005" /*@type{String}*/ /*@desc{Set by iRGS, this is the Symbol ID to arbitrary display. it depends on Game Mechanics}*/ /*@own{iRGS}*/,
						"SymbolState": "0" /*@type{IRGS_IW_SYMBOL_STATE_ENUM}*/ /*@desc{Set by iRGS, this is the State of the Symbol. 0-Normal, 1-Win, 2-Lose}*/ /*@own{iRGS}*/,
						"Revealed": "0" /*@type{Integer}*/ /*@desc{Set by iRGS, 0-Concealed, 1-Revealed (Scratched)}*/ /*@own{iRGS}*/,
						"CData": null /*@type{Object}*/ /*@desc{Set by iRGS, additional game-specific and action-specific Symbol Distribution item data}*/ /*@own{iRGS}*/
					},
					{
						"SymbolID": "00000001-0000-0000-0000-000000000006" /*@type{String}*/ /*@desc{Set by iRGS, this is the Symbol ID to arbitrary display. it depends on Game Mechanics}*/ /*@own{iRGS}*/,
						"SymbolState": "0" /*@type{IRGS_IW_SYMBOL_STATE_ENUM}*/ /*@desc{Set by iRGS, this is the State of the Symbol. 0-Normal, 1-Win, 2-Lose}*/ /*@own{iRGS}*/,
						"Revealed": "0" /*@type{Integer}*/ /*@desc{Set by iRGS, 0-Concealed, 1-Revealed (Scratched)}*/ /*@own{iRGS}*/,
						"CData": null /*@type{Object}*/ /*@desc{Set by iRGS, additional game-specific and action-specific Symbol Distribution item data}*/ /*@own{iRGS}*/
					},
					{
						"SymbolID": "00000001-0000-0000-0000-000000000001" /*@type{String}*/ /*@desc{Set by iRGS, this is the Symbol ID to arbitrary display. it depends on Game Mechanics}*/ /*@own{iRGS}*/,
						"SymbolState": "1" /*@type{IRGS_IW_SYMBOL_STATE_ENUM}*/ /*@desc{Set by iRGS, this is the State of the Symbol. 0-Normal, 1-Win, 2-Lose}*/ /*@own{iRGS}*/,
						"Revealed": "0" /*@type{Integer}*/ /*@desc{Set by iRGS, 0-Concealed, 1-Revealed (Scratched)}*/ /*@own{iRGS}*/,
						"CData": null /*@type{Object}*/ /*@desc{Set by iRGS, additional game-specific and action-specific Symbol Distribution item data}*/ /*@own{iRGS}*/
					}
				]
			}
		]
	}
}
